[{
	"Topic": {
		"id": "1",
		"category_id": "1",
		"title": "Android Custom Dialog Example \u2013 Making Custom AlertDialog",
		"subtitle": "android",
		"description": "<h2>Android Custom Dialog Example<\/h2><ul>\t<li>Again the first thing is creating a new Android Studio project. You can implement the same in your existing project too.<\/li>\t<li>I have created a project named&nbsp;<strong>Android Custom Dialog<\/strong>.<\/li>\t<li>First come inside&nbsp;<strong>colors.xml<\/strong>&nbsp;and change the default colors to the following.<\/li><\/ul><p>&nbsp;<\/p><p>colors.xml<\/p><p><textarea><\/textarea><\/p><table>\t<tbody>\t\t<tr>\t\t\t<td>\t\t\t<p>1<\/p>\t\t\t<p>2<\/p>\t\t\t<p>3<\/p>\t\t\t<p>4<\/p>\t\t\t<p>5<\/p>\t\t\t<p>6<\/p>\t\t\t<p>7<\/p>\t\t\t<p>8<\/p>\t\t\t<p>9<\/p>\t\t\t<p>10<\/p>\t\t\t<p>11<\/p>\t\t\t<\/td>\t\t\t<td>\t\t\t<p>&lt;resources&gt;<\/p>\t\t\t<p>&nbsp;<\/p>\t\t\t<p>&nbsp;&nbsp;&nbsp;&nbsp;&lt;!-- Base application theme. --&gt;<\/p>\t\t\t<p>&nbsp;&nbsp;&nbsp;&nbsp;&lt;style name=&quot;AppTheme&quot; parent=&quot;Theme.AppCompat.Light.DarkActionBar&quot;&gt;<\/p>\t\t\t<p>&nbsp;&nbsp;&nbsp;&nbsp;&nbsp;&nbsp;&nbsp;&nbsp;&lt;!-- Customize your theme here. --&gt;<\/p>\t\t\t<p>&nbsp;&nbsp;&nbsp;&nbsp;&nbsp;&nbsp;&nbsp;&nbsp;&lt;item name=&quot;colorPrimary&quot;&gt;@color\/colorPrimary&lt;\/item&gt;<\/p>\t\t\t<p>&nbsp;&nbsp;&nbsp;&nbsp;&nbsp;&nbsp;&nbsp;&nbsp;&lt;item name=&quot;colorPrimaryDark&quot;&gt;@color\/colorPrimaryDark&lt;\/item&gt;<\/p>\t\t\t<p>&nbsp;&nbsp;&nbsp;&nbsp;&nbsp;&nbsp;&nbsp;&nbsp;&lt;item name=&quot;colorAccent&quot;&gt;@color\/colorAccent&lt;\/item&gt;<\/p>\t\t\t<p>&nbsp;&nbsp;&nbsp;&nbsp;&lt;\/style&gt;<\/p>\t\t\t<p>&nbsp;<\/p>\t\t\t<p>&lt;\/resources&gt;<\/p>\t\t\t<\/td>\t\t<\/tr>\t<\/tbody><\/table><p>&nbsp;<\/p><ul>\t<li>Now below you can see the design of the Custom Dialog that I am going to create.<\/li><\/ul><p><img alt=\"Android Custom Dialog Example\" src=\"https:\/\/i1.wp.com\/www.simplifiedcoding.net\/wp-content\/uploads\/2018\/09\/Android-Custom-Dialog-Example.png?resize=296%2C497&amp;ssl=1\" style=\"height:497px; width:296px\" \/><\/p><p>Android Custom Dialog Example<\/p><ul>\t<li>For the above design we have defined the colors, now we need the background of the OK button and the icon for the header.<\/li>\t<li>For the button background just create a new drawable resource file named&nbsp;<strong>button_background.xml<\/strong>and put the following code.<\/li><\/ul><p>&nbsp;<\/p><p>button_background.xml<\/p><p><textarea><\/textarea><\/p><table>\t<tbody>\t\t<tr>\t\t\t<td>\t\t\t<p>1<\/p>\t\t\t<p>2<\/p>\t\t\t<p>3<\/p>\t\t\t<p>4<\/p>\t\t\t<p>5<\/p>\t\t\t<p>6<\/p>\t\t\t<p>7<\/p>\t\t\t<p>8<\/p>\t\t\t<p>9<\/p>\t\t\t<p>10<\/p>\t\t\t<p>11<\/p>\t\t\t<p>12<\/p>\t\t\t<p>13<\/p>\t\t\t<p>14<\/p>\t\t\t<\/td>\t\t\t<td>\t\t\t<p>&lt;?xml version=&quot;1.0&quot; encoding=&quot;utf-8&quot;?&gt;<\/p>\t\t\t<p>&lt;selector xmlns:android=&quot;http:\/\/schemas.android.com\/apk\/res\/android&quot;&gt;<\/p>\t\t\t<p>&nbsp;<\/p>\t\t\t<p>&nbsp;&nbsp;&nbsp;&nbsp;&lt;item&gt;<\/p>\t\t\t<p>&nbsp;&nbsp;&nbsp;&nbsp;&nbsp;&nbsp;&nbsp;&nbsp;&lt;shape&gt;<\/p>\t\t\t<p>&nbsp;&nbsp;&nbsp;&nbsp;&nbsp;&nbsp;&nbsp;&nbsp;&nbsp;&nbsp;&nbsp;&nbsp;&lt;stroke android:width=&quot;2dp&quot; android:color=&quot;@color\/colorPrimary&quot; \/&gt;<\/p>\t\t\t<p>&nbsp;<\/p>\t\t\t<p>&nbsp;&nbsp;&nbsp;&nbsp;&nbsp;&nbsp;&nbsp;&nbsp;&nbsp;&nbsp;&nbsp;&nbsp;&lt;solid android:color=&quot;@android:color\/transparent&quot; \/&gt;<\/p>\t\t\t<p>&nbsp;<\/p>\t\t\t<p>&nbsp;&nbsp;&nbsp;&nbsp;&nbsp;&nbsp;&nbsp;&nbsp;&nbsp;&nbsp;&nbsp;&nbsp;&lt;corners android:bottomLeftRadius=&quot;6dp&quot; android:bottomRightRadius=&quot;6dp&quot; android:topLeftRadius=&quot;6dp&quot; android:topRightRadius=&quot;6dp&quot; \/&gt;<\/p>\t\t\t<p>&nbsp;&nbsp;&nbsp;&nbsp;&nbsp;&nbsp;&nbsp;&nbsp;&lt;\/shape&gt;<\/p>\t\t\t<p>&nbsp;&nbsp;&nbsp;&nbsp;&lt;\/item&gt;<\/p>\t\t\t<p>&nbsp;<\/p>\t\t\t<p>&lt;\/selector&gt;<\/p>\t\t\t<\/td>\t\t<\/tr>\t<\/tbody><\/table><p>&nbsp;<\/p><ul>\t<li>For the icon that is displaying in the header, create one more drawable file. I created&nbsp;<strong>ic_success.xml&nbsp;<\/strong>and put the following code inside.<\/li><\/ul><p>&nbsp;<\/p><p>ic_success.xml<\/p><p><textarea><\/textarea><\/p><table>\t<tbody>\t\t<tr>\t\t\t<td>\t\t\t<p>1<\/p>\t\t\t<p>2<\/p>\t\t\t<p>3<\/p>\t\t\t<p>4<\/p>\t\t\t<p>5<\/p>\t\t\t<\/td>\t\t\t<td>\t\t\t<p>&lt;vector android:height=&quot;24dp&quot; android:viewportHeight=&quot;512&quot;<\/p>\t\t\t<p>&nbsp;&nbsp;&nbsp;&nbsp;android:viewportWidth=&quot;512&quot; android:width=&quot;24dp&quot; xmlns:android=&quot;http:\/\/schemas.android.com\/apk\/res\/android&quot;&gt;<\/p>\t\t\t<p>&nbsp;&nbsp;&nbsp;&nbsp;&lt;path android:fillColor=&quot;#FFFFFF&quot; android:pathData=&quot;M468.907,214.604c-11.423,0 -20.682,9.26 -20.682,20.682v20.831c-0.031,54.338 -21.221,105.412 -59.666,143.812c-38.417,38.372 -89.467,59.5 -143.761,59.5c-0.04,0 -0.08,0 -0.12,0C132.506,459.365 41.3,368.056 41.364,255.883c0.031,-54.337 21.221,-105.411 59.667,-143.813c38.417,-38.372 89.468,-59.5 143.761,-59.5c0.04,0 0.08,0 0.12,0c28.672,0.016 56.49,5.942 82.68,17.611c10.436,4.65 22.659,-0.041 27.309,-10.474c4.648,-10.433 -0.04,-22.659 -10.474,-27.309c-31.516,-14.043 -64.989,-21.173 -99.492,-21.192c-0.052,0 -0.092,0 -0.144,0c-65.329,0 -126.767,25.428 -172.993,71.6C25.536,129.014 0.038,190.473 0,255.861c-0.037,65.386 25.389,126.874 71.599,173.136c46.21,46.262 107.668,71.76 173.055,71.798c0.051,0 0.092,0 0.144,0c65.329,0 126.767,-25.427 172.993,-71.6c46.262,-46.209 71.76,-107.668 71.798,-173.066v-20.842C489.589,223.864 480.33,214.604 468.907,214.604z&quot;\/&gt;<\/p>\t\t\t<p>&nbsp;&nbsp;&nbsp;&nbsp;&lt;path android:fillColor=&quot;#FFFFFF&quot; android:pathData=&quot;M505.942,39.803c-8.077,-8.076 -21.172,-8.076 -29.249,0L244.794,271.701l-52.609,-52.609c-8.076,-8.077 -21.172,-8.077 -29.248,0c-8.077,8.077 -8.077,21.172 0,29.249l67.234,67.234c4.038,4.039 9.332,6.058 14.625,6.058c5.293,0 10.586,-2.019 14.625,-6.058L505.942,69.052C514.019,60.975 514.019,47.88 505.942,39.803z&quot;\/&gt;<\/p>\t\t\t<p>&lt;\/vector&gt;<\/p>\t\t\t<\/td>\t\t<\/tr>\t<\/tbody><\/table><p>&nbsp;<\/p><ul>\t<li>You can also use any other icon if you want.<\/li>\t<li>Now for our Custom Alert Dialog create a layout. I have created&nbsp;<strong>my_dialog.xml<\/strong>. Inside this file we will design our&nbsp;<strong>Android Custom Dialog<\/strong>.<\/li><\/ul><p>&nbsp;<\/p><p>my_dialog.xml<\/p><p><textarea><\/textarea><\/p><table>\t<tbody>\t\t<tr>\t\t\t<td>\t\t\t<p>1<\/p>\t\t\t<p>2<\/p>\t\t\t<p>3<\/p>\t\t\t<p>4<\/p>\t\t\t<p>5<\/p>\t\t\t<p>6<\/p>\t\t\t<p>7<\/p>\t\t\t<p>8<\/p>\t\t\t<p>9<\/p>\t\t\t<p>10<\/p>\t\t\t<p>11<\/p>\t\t\t<p>12<\/p>\t\t\t<p>13<\/p>\t\t\t<p>14<\/p>\t\t\t<p>15<\/p>\t\t\t<p>16<\/p>\t\t\t<p>17<\/p>\t\t\t<p>18<\/p>\t\t\t<p>19<\/p>\t\t\t<p>20<\/p>\t\t\t<p>21<\/p>\t\t\t<p>22<\/p>\t\t\t<p>23<\/p>\t\t\t<p>24<\/p>\t\t\t<p>25<\/p>\t\t\t<p>26<\/p>\t\t\t<p>27<\/p>\t\t\t<p>28<\/p>\t\t\t<p>29<\/p>\t\t\t<p>30<\/p>\t\t\t<p>31<\/p>\t\t\t<p>32<\/p>\t\t\t<p>33<\/p>\t\t\t<p>34<\/p>\t\t\t<p>35<\/p>\t\t\t<p>36<\/p>\t\t\t<p>37<\/p>\t\t\t<p>38<\/p>\t\t\t<p>39<\/p>\t\t\t<p>40<\/p>\t\t\t<p>41<\/p>\t\t\t<p>42<\/p>\t\t\t<p>43<\/p>\t\t\t<p>44<\/p>\t\t\t<p>45<\/p>\t\t\t<p>46<\/p>\t\t\t<p>47<\/p>\t\t\t<p>48<\/p>\t\t\t<p>49<\/p>\t\t\t<p>50<\/p>\t\t\t<p>51<\/p>\t\t\t<p>52<\/p>\t\t\t<p>53<\/p>\t\t\t<\/td>\t\t\t<td>\t\t\t<p>&lt;?xml version=&quot;1.0&quot; encoding=&quot;utf-8&quot;?&gt;<\/p>\t\t\t<p>&lt;LinearLayout xmlns:android=&quot;http:\/\/schemas.android.com\/apk\/res\/android&quot;<\/p>\t\t\t<p>&nbsp;&nbsp;&nbsp;&nbsp;android:layout_width=&quot;match_parent&quot;<\/p>\t\t\t<p>&nbsp;&nbsp;&nbsp;&nbsp;android:layout_height=&quot;match_parent&quot;<\/p>\t\t\t<p>&nbsp;&nbsp;&nbsp;&nbsp;android:orientation=&quot;vertical&quot;&gt;<\/p>\t\t\t<p>&nbsp;<\/p>\t\t\t<p>&nbsp;&nbsp;&nbsp;&nbsp;&lt;RelativeLayout<\/p>\t\t\t<p>&nbsp;&nbsp;&nbsp;&nbsp;&nbsp;&nbsp;&nbsp;&nbsp;android:layout_width=&quot;match_parent&quot;<\/p>\t\t\t<p>&nbsp;&nbsp;&nbsp;&nbsp;&nbsp;&nbsp;&nbsp;&nbsp;android:layout_height=&quot;80dp&quot;<\/p>\t\t\t<p>&nbsp;&nbsp;&nbsp;&nbsp;&nbsp;&nbsp;&nbsp;&nbsp;android:background=&quot;@color\/colorPrimary&quot;&gt;<\/p>\t\t\t<p>&nbsp;<\/p>\t\t\t<p>&nbsp;&nbsp;&nbsp;&nbsp;&nbsp;&nbsp;&nbsp;&nbsp;&lt;ImageView<\/p>\t\t\t<p>&nbsp;&nbsp;&nbsp;&nbsp;&nbsp;&nbsp;&nbsp;&nbsp;&nbsp;&nbsp;&nbsp;&nbsp;android:layout_width=&quot;50dp&quot;<\/p>\t\t\t<p>&nbsp;&nbsp;&nbsp;&nbsp;&nbsp;&nbsp;&nbsp;&nbsp;&nbsp;&nbsp;&nbsp;&nbsp;android:layout_height=&quot;50dp&quot;<\/p>\t\t\t<p>&nbsp;&nbsp;&nbsp;&nbsp;&nbsp;&nbsp;&nbsp;&nbsp;&nbsp;&nbsp;&nbsp;&nbsp;android:layout_centerInParent=&quot;true&quot;<\/p>\t\t\t<p>&nbsp;&nbsp;&nbsp;&nbsp;&nbsp;&nbsp;&nbsp;&nbsp;&nbsp;&nbsp;&nbsp;&nbsp;android:background=&quot;@drawable\/ic_success&quot; \/&gt;<\/p>\t\t\t<p>&nbsp;<\/p>\t\t\t<p>&nbsp;&nbsp;&nbsp;&nbsp;&lt;\/RelativeLayout&gt;<\/p>\t\t\t<p>&nbsp;<\/p>\t\t\t<p>&nbsp;&nbsp;&nbsp;&nbsp;&lt;LinearLayout<\/p>\t\t\t<p>&nbsp;&nbsp;&nbsp;&nbsp;&nbsp;&nbsp;&nbsp;&nbsp;android:layout_width=&quot;match_parent&quot;<\/p>\t\t\t<p>&nbsp;&nbsp;&nbsp;&nbsp;&nbsp;&nbsp;&nbsp;&nbsp;android:layout_height=&quot;wrap_content&quot;<\/p>\t\t\t<p>&nbsp;&nbsp;&nbsp;&nbsp;&nbsp;&nbsp;&nbsp;&nbsp;android:orientation=&quot;vertical&quot;<\/p>\t\t\t<p>&nbsp;&nbsp;&nbsp;&nbsp;&nbsp;&nbsp;&nbsp;&nbsp;android:padding=&quot;16dp&quot;&gt;<\/p>\t\t\t<p>&nbsp;<\/p>\t\t\t<p>&nbsp;&nbsp;&nbsp;&nbsp;&nbsp;&nbsp;&nbsp;&nbsp;&lt;TextView<\/p>\t\t\t<p>&nbsp;&nbsp;&nbsp;&nbsp;&nbsp;&nbsp;&nbsp;&nbsp;&nbsp;&nbsp;&nbsp;&nbsp;android:layout_width=&quot;match_parent&quot;<\/p>\t\t\t<p>&nbsp;&nbsp;&nbsp;&nbsp;&nbsp;&nbsp;&nbsp;&nbsp;&nbsp;&nbsp;&nbsp;&nbsp;android:layout_height=&quot;wrap_content&quot;<\/p>\t\t\t<p>&nbsp;&nbsp;&nbsp;&nbsp;&nbsp;&nbsp;&nbsp;&nbsp;&nbsp;&nbsp;&nbsp;&nbsp;android:text=&quot;Success&quot;<\/p>\t\t\t<p>&nbsp;&nbsp;&nbsp;&nbsp;&nbsp;&nbsp;&nbsp;&nbsp;&nbsp;&nbsp;&nbsp;&nbsp;android:textAlignment=&quot;center&quot;<\/p>\t\t\t<p>&nbsp;&nbsp;&nbsp;&nbsp;&nbsp;&nbsp;&nbsp;&nbsp;&nbsp;&nbsp;&nbsp;&nbsp;android:textAppearance=&quot;@style\/TextAppearance.AppCompat.Headline&quot; \/&gt;<\/p>\t\t\t<p>&nbsp;<\/p>\t\t\t<p>&nbsp;&nbsp;&nbsp;&nbsp;&nbsp;&nbsp;&nbsp;&nbsp;&lt;TextView<\/p>\t\t\t<p>&nbsp;&nbsp;&nbsp;&nbsp;&nbsp;&nbsp;&nbsp;&nbsp;&nbsp;&nbsp;&nbsp;&nbsp;android:layout_width=&quot;match_parent&quot;<\/p>\t\t\t<p>&nbsp;&nbsp;&nbsp;&nbsp;&nbsp;&nbsp;&nbsp;&nbsp;&nbsp;&nbsp;&nbsp;&nbsp;android:layout_height=&quot;wrap_content&quot;<\/p>\t\t\t<p>&nbsp;&nbsp;&nbsp;&nbsp;&nbsp;&nbsp;&nbsp;&nbsp;&nbsp;&nbsp;&nbsp;&nbsp;android:layout_marginTop=&quot;10dp&quot;<\/p>\t\t\t<p>&nbsp;&nbsp;&nbsp;&nbsp;&nbsp;&nbsp;&nbsp;&nbsp;&nbsp;&nbsp;&nbsp;&nbsp;android:text=&quot;Lorem ipsum dolor sit amet, consectetur adipiscing elit. Nulla eu erat tincidunt lacus fermentum rutrum.&quot;<\/p>\t\t\t<p>&nbsp;&nbsp;&nbsp;&nbsp;&nbsp;&nbsp;&nbsp;&nbsp;&nbsp;&nbsp;&nbsp;&nbsp;android:textAlignment=&quot;center&quot;<\/p>\t\t\t<p>&nbsp;&nbsp;&nbsp;&nbsp;&nbsp;&nbsp;&nbsp;&nbsp;&nbsp;&nbsp;&nbsp;&nbsp;android:textAppearance=&quot;@style\/TextAppearance.AppCompat.Medium&quot; \/&gt;<\/p>\t\t\t<p>&nbsp;<\/p>\t\t\t<p>&nbsp;&nbsp;&nbsp;&nbsp;&nbsp;&nbsp;&nbsp;&nbsp;&lt;Button<\/p>\t\t\t<p>&nbsp;&nbsp;&nbsp;&nbsp;&nbsp;&nbsp;&nbsp;&nbsp;&nbsp;&nbsp;&nbsp;&nbsp;android:id=&quot;@+id\/buttonOk&quot;<\/p>\t\t\t<p>&nbsp;&nbsp;&nbsp;&nbsp;&nbsp;&nbsp;&nbsp;&nbsp;&nbsp;&nbsp;&nbsp;&nbsp;android:layout_width=&quot;200dp&quot;<\/p>\t\t\t<p>&nbsp;&nbsp;&nbsp;&nbsp;&nbsp;&nbsp;&nbsp;&nbsp;&nbsp;&nbsp;&nbsp;&nbsp;android:layout_height=&quot;wrap_content&quot;<\/p>\t\t\t<p>&nbsp;&nbsp;&nbsp;&nbsp;&nbsp;&nbsp;&nbsp;&nbsp;&nbsp;&nbsp;&nbsp;&nbsp;android:layout_gravity=&quot;center&quot;<\/p>\t\t\t<p>&nbsp;&nbsp;&nbsp;&nbsp;&nbsp;&nbsp;&nbsp;&nbsp;&nbsp;&nbsp;&nbsp;&nbsp;android:layout_marginTop=&quot;15dp&quot;<\/p>\t\t\t<p>&nbsp;&nbsp;&nbsp;&nbsp;&nbsp;&nbsp;&nbsp;&nbsp;&nbsp;&nbsp;&nbsp;&nbsp;android:background=&quot;@drawable\/button_background&quot;<\/p>\t\t\t<p>&nbsp;&nbsp;&nbsp;&nbsp;&nbsp;&nbsp;&nbsp;&nbsp;&nbsp;&nbsp;&nbsp;&nbsp;android:text=&quot;Ok&quot;<\/p>\t\t\t<p>&nbsp;&nbsp;&nbsp;&nbsp;&nbsp;&nbsp;&nbsp;&nbsp;&nbsp;&nbsp;&nbsp;&nbsp;android:textColor=&quot;@color\/colorPrimary&quot; \/&gt;<\/p>\t\t\t<p>&nbsp;<\/p>\t\t\t<p>&nbsp;&nbsp;&nbsp;&nbsp;&lt;\/LinearLayout&gt;<\/p>\t\t\t<p>&nbsp;<\/p>\t\t\t<p>&lt;\/LinearLayout&gt;<\/p>\t\t\t<\/td>\t\t<\/tr>\t<\/tbody><\/table><p>&nbsp;<\/p><p><ins><ins><ins><iframe frameborder=\"0\" height=\"90\" id=\"aswift_2\" name=\"aswift_2\" scrolling=\"no\" width=\"809\"><\/iframe><\/ins><\/ins><\/ins><\/p><ul>\t<li>The above layout code will generate the following design.<\/li><\/ul><p><img alt=\"Android Custom Dialog Example\" src=\"https:\/\/i1.wp.com\/www.simplifiedcoding.net\/wp-content\/uploads\/2018\/09\/Android-Custom-Dialog-Example.png?resize=296%2C497&amp;ssl=1\" style=\"height:497px; width:296px\" \/><\/p><p>Android Custom Dialog Example<\/p><ul>\t<li>Now we need to display the above Custom Dialog Design as an Alert Dialog when a button is clicked.<\/li>\t<li>For this come inside&nbsp;<strong>activity_main.xml<\/strong>&nbsp;and create a button inside the activity.<\/li><\/ul><p>&nbsp;<\/p><p>activity_main.xml<\/p><p><textarea><\/textarea><\/p><table>\t<tbody>\t\t<tr>\t\t\t<td>\t\t\t<p>1<\/p>\t\t\t<p>2<\/p>\t\t\t<p>3<\/p>\t\t\t<p>4<\/p>\t\t\t<p>5<\/p>\t\t\t<p>6<\/p>\t\t\t<p>7<\/p>\t\t\t<p>8<\/p>\t\t\t<p>9<\/p>\t\t\t<p>10<\/p>\t\t\t<p>11<\/p>\t\t\t<p>12<\/p>\t\t\t<p>13<\/p>\t\t\t<p>14<\/p>\t\t\t<p>15<\/p>\t\t\t<p>16<\/p>\t\t\t<p>17<\/p>\t\t\t<p>18<\/p>\t\t\t<p>19<\/p>\t\t\t<p>20<\/p>\t\t\t<p>21<\/p>\t\t\t<\/td>\t\t\t<td>\t\t\t<p>&lt;?xml version=&quot;1.0&quot; encoding=&quot;utf-8&quot;?&gt;<\/p>\t\t\t<p>&lt;RelativeLayout xmlns:android=&quot;http:\/\/schemas.android.com\/apk\/res\/android&quot;<\/p>\t\t\t<p>&nbsp;&nbsp;&nbsp;&nbsp;xmlns:app=&quot;http:\/\/schemas.android.com\/apk\/res-auto&quot;<\/p>\t\t\t<p>&nbsp;&nbsp;&nbsp;&nbsp;xmlns:tools=&quot;http:\/\/schemas.android.com\/tools&quot;<\/p>\t\t\t<p>&nbsp;&nbsp;&nbsp;&nbsp;android:layout_width=&quot;match_parent&quot;<\/p>\t\t\t<p>&nbsp;&nbsp;&nbsp;&nbsp;android:layout_height=&quot;match_parent&quot;<\/p>\t\t\t<p>&nbsp;&nbsp;&nbsp;&nbsp;tools:context=&quot;.MainActivity&quot;&gt;<\/p>\t\t\t<p>&nbsp;<\/p>\t\t\t<p>&nbsp;<\/p>\t\t\t<p>&nbsp;&nbsp;&nbsp;&nbsp;&lt;Button<\/p>\t\t\t<p>&nbsp;&nbsp;&nbsp;&nbsp;&nbsp;&nbsp;&nbsp;&nbsp;android:id=&quot;@+id\/buttonShowDialog&quot;<\/p>\t\t\t<p>&nbsp;&nbsp;&nbsp;&nbsp;&nbsp;&nbsp;&nbsp;&nbsp;android:layout_width=&quot;wrap_content&quot;<\/p>\t\t\t<p>&nbsp;&nbsp;&nbsp;&nbsp;&nbsp;&nbsp;&nbsp;&nbsp;android:layout_height=&quot;wrap_content&quot;<\/p>\t\t\t<p>&nbsp;&nbsp;&nbsp;&nbsp;&nbsp;&nbsp;&nbsp;&nbsp;android:layout_centerInParent=&quot;true&quot;<\/p>\t\t\t<p>&nbsp;&nbsp;&nbsp;&nbsp;&nbsp;&nbsp;&nbsp;&nbsp;android:background=&quot;@color\/colorPrimary&quot;<\/p>\t\t\t<p>&nbsp;&nbsp;&nbsp;&nbsp;&nbsp;&nbsp;&nbsp;&nbsp;android:padding=&quot;15dp&quot;<\/p>\t\t\t<p>&nbsp;&nbsp;&nbsp;&nbsp;&nbsp;&nbsp;&nbsp;&nbsp;android:text=&quot;Android Custom Dialog Example&quot;<\/p>\t\t\t<p>&nbsp;&nbsp;&nbsp;&nbsp;&nbsp;&nbsp;&nbsp;&nbsp;android:textAllCaps=&quot;false&quot;<\/p>\t\t\t<p>&nbsp;&nbsp;&nbsp;&nbsp;&nbsp;&nbsp;&nbsp;&nbsp;android:textColor=&quot;#ffffff&quot; \/&gt;<\/p>\t\t\t<p>&nbsp;<\/p>\t\t\t<p>&lt;\/RelativeLayout&gt;<\/p>\t\t\t<\/td>\t\t<\/tr>\t<\/tbody><\/table><p>&nbsp;<\/p><ul>\t<li>So your&nbsp;<strong>activity_main.xml<\/strong>&nbsp;will look as below.<\/li><\/ul><p><img alt=\"Android Custom Dialog\" src=\"https:\/\/i1.wp.com\/www.simplifiedcoding.net\/wp-content\/uploads\/2018\/09\/Android-Custom-Dialog.png?resize=304%2C499&amp;ssl=1\" style=\"height:499px; width:304px\" \/><\/p><p>Android Custom Dialog<\/p><ul>\t<li>Now the last task is to display our Custom Dialog when the button is clicked.<\/li>\t<li>For displaying the dialog come inside&nbsp;<strong>MainActivity.java<\/strong>&nbsp;and write the following code.<\/li><\/ul><p>&nbsp;<\/p><p>MainActivity.java<\/p><p>Java<\/p><p><textarea><\/textarea><\/p><table>\t<tbody>\t\t<tr>\t\t\t<td>\t\t\t<p>1<\/p>\t\t\t<p>2<\/p>\t\t\t<p>3<\/p>\t\t\t<p>4<\/p>\t\t\t<p>5<\/p>\t\t\t<p>6<\/p>\t\t\t<p>7<\/p>\t\t\t<p>8<\/p>\t\t\t<p>9<\/p>\t\t\t<p>10<\/p>\t\t\t<p>11<\/p>\t\t\t<p>12<\/p>\t\t\t<p>13<\/p>\t\t\t<p>14<\/p>\t\t\t<p>15<\/p>\t\t\t<p>16<\/p>\t\t\t<p>17<\/p>\t\t\t<p>18<\/p>\t\t\t<p>19<\/p>\t\t\t<p>20<\/p>\t\t\t<p>21<\/p>\t\t\t<p>22<\/p>\t\t\t<p>23<\/p>\t\t\t<p>24<\/p>\t\t\t<p>25<\/p>\t\t\t<p>26<\/p>\t\t\t<p>27<\/p>\t\t\t<p>28<\/p>\t\t\t<p>29<\/p>\t\t\t<p>30<\/p>\t\t\t<p>31<\/p>\t\t\t<p>32<\/p>\t\t\t<p>33<\/p>\t\t\t<p>34<\/p>\t\t\t<p>35<\/p>\t\t\t<p>36<\/p>\t\t\t<p>37<\/p>\t\t\t<p>38<\/p>\t\t\t<p>39<\/p>\t\t\t<p>40<\/p>\t\t\t<p>41<\/p>\t\t\t<p>42<\/p>\t\t\t<p>43<\/p>\t\t\t<p>44<\/p>\t\t\t<p>45<\/p>\t\t\t<p>46<\/p>\t\t\t<\/td>\t\t\t<td>\t\t\t<p>package net.simplifiedcoding.androidcustomdialog;<\/p>\t\t\t<p>&nbsp;<\/p>\t\t\t<p>import android.support.v7.app.AlertDialog;<\/p>\t\t\t<p>import android.support.v7.app.AppCompatActivity;<\/p>\t\t\t<p>import android.os.Bundle;<\/p>\t\t\t<p>import android.view.LayoutInflater;<\/p>\t\t\t<p>import android.view.View;<\/p>\t\t\t<p>import android.view.ViewGroup;<\/p>\t\t\t<p>&nbsp;<\/p>\t\t\t<p>public class MainActivity extends AppCompatActivity {<\/p>\t\t\t<p>&nbsp;<\/p>\t\t\t<p>&nbsp;&nbsp;&nbsp;&nbsp;@Override<\/p>\t\t\t<p>&nbsp;&nbsp;&nbsp;&nbsp;protected void onCreate(Bundle savedInstanceState) {<\/p>\t\t\t<p>&nbsp;&nbsp;&nbsp;&nbsp;&nbsp;&nbsp;&nbsp;&nbsp;super.onCreate(savedInstanceState);<\/p>\t\t\t<p>&nbsp;&nbsp;&nbsp;&nbsp;&nbsp;&nbsp;&nbsp;&nbsp;setContentView(R.layout.activity_main);<\/p>\t\t\t<p>&nbsp;<\/p>\t\t\t<p>&nbsp;&nbsp;&nbsp;&nbsp;&nbsp;&nbsp;&nbsp;&nbsp;\/\/attaching click listener<\/p>\t\t\t<p>&nbsp;&nbsp;&nbsp;&nbsp;&nbsp;&nbsp;&nbsp;&nbsp;findViewById(R.id.buttonShowDialog).setOnClickListener(new View.OnClickListener() {<\/p>\t\t\t<p>&nbsp;&nbsp;&nbsp;&nbsp;&nbsp;&nbsp;&nbsp;&nbsp;&nbsp;&nbsp;&nbsp;&nbsp;@Override<\/p>\t\t\t<p>&nbsp;&nbsp;&nbsp;&nbsp;&nbsp;&nbsp;&nbsp;&nbsp;&nbsp;&nbsp;&nbsp;&nbsp;public void onClick(View v) {<\/p>\t\t\t<p>&nbsp;&nbsp;&nbsp;&nbsp;&nbsp;&nbsp;&nbsp;&nbsp;&nbsp;&nbsp;&nbsp;&nbsp;&nbsp;&nbsp;&nbsp;&nbsp;<\/p>\t\t\t<p>&nbsp;&nbsp;&nbsp;&nbsp;&nbsp;&nbsp;&nbsp;&nbsp;&nbsp;&nbsp;&nbsp;&nbsp;&nbsp;&nbsp;&nbsp;&nbsp;\/\/calling this method to show our android custom alert dialog<\/p>\t\t\t<p>&nbsp;&nbsp;&nbsp;&nbsp;&nbsp;&nbsp;&nbsp;&nbsp;&nbsp;&nbsp;&nbsp;&nbsp;&nbsp;&nbsp;&nbsp;&nbsp;showCustomDialog();<\/p>\t\t\t<p>&nbsp;&nbsp;&nbsp;&nbsp;&nbsp;&nbsp;&nbsp;&nbsp;&nbsp;&nbsp;&nbsp;&nbsp;}<\/p>\t\t\t<p>&nbsp;&nbsp;&nbsp;&nbsp;&nbsp;&nbsp;&nbsp;&nbsp;});<\/p>\t\t\t<p>&nbsp;&nbsp;&nbsp;&nbsp;}<\/p>\t\t\t<p>&nbsp;<\/p>\t\t\t<p>&nbsp;&nbsp;&nbsp;&nbsp;private void showCustomDialog() {<\/p>\t\t\t<p>&nbsp;&nbsp;&nbsp;&nbsp;&nbsp;&nbsp;&nbsp;&nbsp;\/\/before inflating the custom alert dialog layout, we will get the current activity viewgroup<\/p>\t\t\t<p>&nbsp;&nbsp;&nbsp;&nbsp;&nbsp;&nbsp;&nbsp;&nbsp;ViewGroup viewGroup = findViewById(android.R.id.content);<\/p>\t\t\t<p>&nbsp;&nbsp;&nbsp;&nbsp;&nbsp;&nbsp;&nbsp;&nbsp;<\/p>\t\t\t<p>&nbsp;&nbsp;&nbsp;&nbsp;&nbsp;&nbsp;&nbsp;&nbsp;\/\/then we will inflate the custom alert dialog xml that we created<\/p>\t\t\t<p>&nbsp;&nbsp;&nbsp;&nbsp;&nbsp;&nbsp;&nbsp;&nbsp;View dialogView = LayoutInflater.from(this).inflate(R.layout.my_dialog, viewGroup, false);<\/p>\t\t\t<p>&nbsp;<\/p>\t\t\t<p>&nbsp;<\/p>\t\t\t<p>&nbsp;&nbsp;&nbsp;&nbsp;&nbsp;&nbsp;&nbsp;&nbsp;\/\/Now we need an AlertDialog.Builder object<\/p>\t\t\t<p>&nbsp;&nbsp;&nbsp;&nbsp;&nbsp;&nbsp;&nbsp;&nbsp;AlertDialog.Builder builder = new AlertDialog.Builder(this);<\/p>\t\t\t<p>&nbsp;&nbsp;&nbsp;&nbsp;&nbsp;&nbsp;&nbsp;&nbsp;<\/p>\t\t\t<p>&nbsp;&nbsp;&nbsp;&nbsp;&nbsp;&nbsp;&nbsp;&nbsp;\/\/setting the view of the builder to our custom view that we already inflated<\/p>\t\t\t<p>&nbsp;&nbsp;&nbsp;&nbsp;&nbsp;&nbsp;&nbsp;&nbsp;builder.setView(dialogView);<\/p>\t\t\t<p>&nbsp;<\/p>\t\t\t<p>&nbsp;&nbsp;&nbsp;&nbsp;&nbsp;&nbsp;&nbsp;&nbsp;\/\/finally creating the alert dialog and displaying it<\/p>\t\t\t<p>&nbsp;&nbsp;&nbsp;&nbsp;&nbsp;&nbsp;&nbsp;&nbsp;AlertDialog alertDialog = builder.create();<\/p>\t\t\t<p>&nbsp;&nbsp;&nbsp;&nbsp;&nbsp;&nbsp;&nbsp;&nbsp;alertDialog.show();<\/p>\t\t\t<p>&nbsp;&nbsp;&nbsp;&nbsp;}<\/p>\t\t\t<p>}<\/p>\t\t\t<\/td>\t\t<\/tr>\t<\/tbody><\/table>",
		"youtube_link": "",
		"content": "<p>In this post we will see an&nbsp;<strong>Android Custom Dialog Example<\/strong>. I hope you know about creating Dialogs in Android, and then you might be thinking that what if I can customized the dialog completely as per my need. Then the answer is &ldquo;YES&rdquo; you can customized it as you want, you can put whatever design or component you need in your Alert Dialog.<\/p>",
		"admin_id": "1",
		"created_at": "2019-05-24 15:43:45",
		"modified_at": "2019-05-24 15:43:45"
	}
}, {
	"Topic": {
		"id": "2",
		"category_id": "1",
		"title": "Android Splash Screen Example \u2013 Implementing Splash Screen",
		"subtitle": "Android",
		"description": "<h2>Android Splash Screen Example<\/h2><p>For building the Splash Screen the first thing needed is the design of the screen. But as this post is only an example we will not dig much into the designing part. Here I am going to use only a logo that I will display in the center of the screen.<\/p><p>Now let&rsquo;s just create our android project.<\/p><ul>\t<li>Here I have created a new project using an&nbsp;<strong>EmptyActivity<\/strong>.<\/li>\t<li>Once your project is loaded, first we will design our Splash Screen.<\/li><\/ul><h3>Designing Splash Screen<\/h3><p>You can play with the design as much as you want. Here I am just using logo of StackOverflow to create a very quick design. It is having nothing just the logo image on the center.<\/p><p>For designing the Splash Screen we will create a drawable resource file.<\/p><ul>\t<li>Right click on the drawable folder and create a new drawable resource file. Here I have created&nbsp;<strong>splash_screen.xml<\/strong>.<\/li><\/ul><p><img alt=\"android splash screen example\" src=\"https:\/\/i0.wp.com\/www.simplifiedcoding.net\/wp-content\/uploads\/2018\/09\/android-splash-screen-example.png?resize=792%2C804&amp;ssl=1\" style=\"height:804px; width:792px\" \/><\/p><p>Creating Drawable Resource File<\/p><ul>\t<li>Here we are going to design our Splash Screen. So inside the file put the following code.<\/li><\/ul><p>&nbsp;<\/p><p>splash_screen.xml<\/p><p><textarea><\/textarea><\/p><table>\t<tbody>\t\t<tr>\t\t\t<td>\t\t\t<p>1<\/p>\t\t\t<p>2<\/p>\t\t\t<p>3<\/p>\t\t\t<p>4<\/p>\t\t\t<p>5<\/p>\t\t\t<p>6<\/p>\t\t\t<p>7<\/p>\t\t\t<p>8<\/p>\t\t\t<p>9<\/p>\t\t\t<p>10<\/p>\t\t\t<p>11<\/p>\t\t\t<p>12<\/p>\t\t\t<p>13<\/p>\t\t\t<p>14<\/p>\t\t\t<p>15<\/p>\t\t\t<\/td>\t\t\t<td>\t\t\t<p>&lt;?xml version=&quot;1.0&quot; encoding=&quot;utf-8&quot;?&gt;<\/p>\t\t\t<p>&lt;layer-list xmlns:android=&quot;http:\/\/schemas.android.com\/apk\/res\/android&quot;&gt;<\/p>\t\t\t<p>&nbsp;<\/p>\t\t\t<p>&nbsp;<\/p>\t\t\t<p>&nbsp;&nbsp;&nbsp;&nbsp;&lt;item&gt;<\/p>\t\t\t<p>&nbsp;&nbsp;&nbsp;&nbsp;&nbsp;&nbsp;&nbsp;&nbsp;&lt;color android:color=&quot;#ffffff&quot;&gt;&lt;\/color&gt;<\/p>\t\t\t<p>&nbsp;&nbsp;&nbsp;&nbsp;&lt;\/item&gt;<\/p>\t\t\t<p>&nbsp;<\/p>\t\t\t<p>&nbsp;&nbsp;&nbsp;&nbsp;&lt;item<\/p>\t\t\t<p>&nbsp;&nbsp;&nbsp;&nbsp;&nbsp;&nbsp;&nbsp;&nbsp;android:width=&quot;170dp&quot;<\/p>\t\t\t<p>&nbsp;&nbsp;&nbsp;&nbsp;&nbsp;&nbsp;&nbsp;&nbsp;android:height=&quot;180dp&quot;<\/p>\t\t\t<p>&nbsp;&nbsp;&nbsp;&nbsp;&nbsp;&nbsp;&nbsp;&nbsp;android:drawable=&quot;@drawable\/app_logo&quot;<\/p>\t\t\t<p>&nbsp;&nbsp;&nbsp;&nbsp;&nbsp;&nbsp;&nbsp;&nbsp;android:gravity=&quot;center_horizontal|center_vertical&quot; \/&gt;<\/p>\t\t\t<p>&nbsp;<\/p>\t\t\t<p>&lt;\/layer-list&gt;<\/p>\t\t\t<\/td>\t\t<\/tr>\t<\/tbody><\/table><p>&nbsp;<\/p><p><ins><ins><ins><iframe frameborder=\"0\" height=\"90\" id=\"aswift_2\" name=\"aswift_2\" scrolling=\"no\" width=\"809\"><\/iframe><\/ins><\/ins><\/ins><\/p><ul>\t<li>In the above code&nbsp;<strong>app_logo<\/strong>&nbsp;is the image file that I have already pasted inside my drawable folder, you need to put your logo that you want in the splash screen.<\/li>\t<li>Now we will create a theme that will show this designed screen as the background of our activity.<\/li><\/ul><h3>Creating Splash Theme<\/h3><ul>\t<li>Open the file<strong>&nbsp;res-&gt;values-&gt;styles.xml<\/strong>&nbsp;and modify it as below.<\/li><\/ul><p>&nbsp;<\/p><p>styles.xml<\/p><p><textarea><\/textarea><\/p><table>\t<tbody>\t\t<tr>\t\t\t<td>\t\t\t<p>1<\/p>\t\t\t<p>2<\/p>\t\t\t<p>3<\/p>\t\t\t<p>4<\/p>\t\t\t<p>5<\/p>\t\t\t<p>6<\/p>\t\t\t<p>7<\/p>\t\t\t<p>8<\/p>\t\t\t<p>9<\/p>\t\t\t<p>10<\/p>\t\t\t<p>11<\/p>\t\t\t<p>12<\/p>\t\t\t<p>13<\/p>\t\t\t<p>14<\/p>\t\t\t<p>15<\/p>\t\t\t<p>16<\/p>\t\t\t<p>17<\/p>\t\t\t<p>18<\/p>\t\t\t<\/td>\t\t\t<td>\t\t\t<p>&lt;resources&gt;<\/p>\t\t\t<p>&nbsp;<\/p>\t\t\t<p>&nbsp;&nbsp;&nbsp;&nbsp;&lt;!-- Base application theme. --&gt;<\/p>\t\t\t<p>&nbsp;&nbsp;&nbsp;&nbsp;&lt;style name=&quot;AppTheme&quot; parent=&quot;Theme.AppCompat.Light.DarkActionBar&quot;&gt;<\/p>\t\t\t<p>&nbsp;&nbsp;&nbsp;&nbsp;&nbsp;&nbsp;&nbsp;&nbsp;&lt;!-- Customize your theme here. --&gt;<\/p>\t\t\t<p>&nbsp;&nbsp;&nbsp;&nbsp;&nbsp;&nbsp;&nbsp;&nbsp;&lt;item name=&quot;colorPrimary&quot;&gt;@color\/colorPrimary&lt;\/item&gt;<\/p>\t\t\t<p>&nbsp;&nbsp;&nbsp;&nbsp;&nbsp;&nbsp;&nbsp;&nbsp;&lt;item name=&quot;colorPrimaryDark&quot;&gt;@color\/colorPrimaryDark&lt;\/item&gt;<\/p>\t\t\t<p>&nbsp;&nbsp;&nbsp;&nbsp;&nbsp;&nbsp;&nbsp;&nbsp;&lt;item name=&quot;colorAccent&quot;&gt;@color\/colorAccent&lt;\/item&gt;<\/p>\t\t\t<p>&nbsp;&nbsp;&nbsp;&nbsp;&lt;\/style&gt;<\/p>\t\t\t<p>&nbsp;<\/p>\t\t\t<p>&nbsp;<\/p>\t\t\t<p>&nbsp;&nbsp;&nbsp;&nbsp;<\/p>\t\t\t<p>&nbsp;&nbsp;&nbsp;&nbsp;&lt;!-- Android Splash Screen Example --&gt;<\/p>\t\t\t<p>&nbsp;&nbsp;&nbsp;&nbsp;&lt;style name=&quot;AppTheme.Launcher&quot; parent=&quot;Theme.AppCompat.Light.NoActionBar&quot;&gt;<\/p>\t\t\t<p>&nbsp;&nbsp;&nbsp;&nbsp;&nbsp;&nbsp;&nbsp;&nbsp;&lt;item name=&quot;android:windowBackground&quot;&gt;@drawable\/splash_screen&lt;\/item&gt;<\/p>\t\t\t<p>&nbsp;&nbsp;&nbsp;&nbsp;&lt;\/style&gt;<\/p>\t\t\t<p>&nbsp;<\/p>\t\t\t<p>&lt;\/resources&gt;<\/p>\t\t\t<\/td>\t\t<\/tr>\t<\/tbody><\/table><p>&nbsp;<\/p><ul>\t<li>So we have a theme that will show up our Splash Screen. As you can see for the&nbsp;<strong>windowBackground<\/strong>&nbsp;of the theme we have set the&nbsp;<strong>splash_screen.xml<\/strong>.<\/li><\/ul><h3>Displaying Splash Screen<\/h3><p>Let me first tell you the idea. The splash screen will show up only when the activity is not loaded, once the activity is loaded the splash screen will disappear. That is why we have set the splash screen as the windowBackground, so it will so the splash screen only when the activity is not loaded.<\/p><ul>\t<li>To achieve this objective we will change our MainActivity theme with the theme we created. So come inside AndroidManifest.xml and change the theme to<strong>&nbsp;App.Launcher<\/strong>, as shown in the below code.<\/li><\/ul><p>&nbsp;<\/p><p>AndroidManifest.xml<\/p><p><textarea><\/textarea><\/p><table>\t<tbody>\t\t<tr>\t\t\t<td>\t\t\t<p>1<\/p>\t\t\t<p>2<\/p>\t\t\t<p>3<\/p>\t\t\t<p>4<\/p>\t\t\t<p>5<\/p>\t\t\t<p>6<\/p>\t\t\t<p>7<\/p>\t\t\t<p>8<\/p>\t\t\t<p>9<\/p>\t\t\t<p>10<\/p>\t\t\t<p>11<\/p>\t\t\t<p>12<\/p>\t\t\t<p>13<\/p>\t\t\t<p>14<\/p>\t\t\t<p>15<\/p>\t\t\t<p>16<\/p>\t\t\t<p>17<\/p>\t\t\t<p>18<\/p>\t\t\t<p>19<\/p>\t\t\t<p>20<\/p>\t\t\t<p>21<\/p>\t\t\t<\/td>\t\t\t<td>\t\t\t<p>&lt;?xml version=&quot;1.0&quot; encoding=&quot;utf-8&quot;?&gt;<\/p>\t\t\t<p>&lt;manifest xmlns:android=&quot;http:\/\/schemas.android.com\/apk\/res\/android&quot;<\/p>\t\t\t<p>&nbsp;&nbsp;&nbsp;&nbsp;package=&quot;net.simplifiedcoding.androidsplashscreen&quot;&gt;<\/p>\t\t\t<p>&nbsp;<\/p>\t\t\t<p>&nbsp;&nbsp;&nbsp;&nbsp;&lt;application<\/p>\t\t\t<p>&nbsp;&nbsp;&nbsp;&nbsp;&nbsp;&nbsp;&nbsp;&nbsp;android:allowBackup=&quot;true&quot;<\/p>\t\t\t<p>&nbsp;&nbsp;&nbsp;&nbsp;&nbsp;&nbsp;&nbsp;&nbsp;android:icon=&quot;@mipmap\/ic_launcher&quot;<\/p>\t\t\t<p>&nbsp;&nbsp;&nbsp;&nbsp;&nbsp;&nbsp;&nbsp;&nbsp;android:label=&quot;@string\/app_name&quot;<\/p>\t\t\t<p>&nbsp;&nbsp;&nbsp;&nbsp;&nbsp;&nbsp;&nbsp;&nbsp;android:roundIcon=&quot;@mipmap\/ic_launcher_round&quot;<\/p>\t\t\t<p>&nbsp;&nbsp;&nbsp;&nbsp;&nbsp;&nbsp;&nbsp;&nbsp;android:supportsRtl=&quot;true&quot;<\/p>\t\t\t<p>&nbsp;&nbsp;&nbsp;&nbsp;&nbsp;&nbsp;&nbsp;&nbsp;android:theme=&quot;@style\/AppTheme.Launcher&quot;&gt;<\/p>\t\t\t<p>&nbsp;&nbsp;&nbsp;&nbsp;&nbsp;&nbsp;&nbsp;&nbsp;&lt;activity android:name=&quot;.MainActivity&quot;&gt;<\/p>\t\t\t<p>&nbsp;&nbsp;&nbsp;&nbsp;&nbsp;&nbsp;&nbsp;&nbsp;&nbsp;&nbsp;&nbsp;&nbsp;&lt;intent-filter&gt;<\/p>\t\t\t<p>&nbsp;&nbsp;&nbsp;&nbsp;&nbsp;&nbsp;&nbsp;&nbsp;&nbsp;&nbsp;&nbsp;&nbsp;&nbsp;&nbsp;&nbsp;&nbsp;&lt;action android:name=&quot;android.intent.action.MAIN&quot; \/&gt;<\/p>\t\t\t<p>&nbsp;<\/p>\t\t\t<p>&nbsp;&nbsp;&nbsp;&nbsp;&nbsp;&nbsp;&nbsp;&nbsp;&nbsp;&nbsp;&nbsp;&nbsp;&nbsp;&nbsp;&nbsp;&nbsp;&lt;category android:name=&quot;android.intent.category.LAUNCHER&quot; \/&gt;<\/p>\t\t\t<p>&nbsp;&nbsp;&nbsp;&nbsp;&nbsp;&nbsp;&nbsp;&nbsp;&nbsp;&nbsp;&nbsp;&nbsp;&lt;\/intent-filter&gt;<\/p>\t\t\t<p>&nbsp;&nbsp;&nbsp;&nbsp;&nbsp;&nbsp;&nbsp;&nbsp;&lt;\/activity&gt;<\/p>\t\t\t<p>&nbsp;&nbsp;&nbsp;&nbsp;&lt;\/application&gt;<\/p>\t\t\t<p>&nbsp;<\/p>\t\t\t<p>&lt;\/manifest&gt;<\/p>\t\t\t<\/td>\t\t<\/tr>\t<\/tbody><\/table><p>&nbsp;<\/p><ul>\t<li>Now when we launch the activity it will show the Splash Screen, and when the activity is loaded we will change the theme and then it will display our Activity.<\/li>\t<li>So come inside&nbsp;<strong>MainActivity.java<\/strong>&nbsp;and change the theme inside the method&nbsp;<strong>onCreate()<\/strong>.<\/li><\/ul><p>&nbsp;<\/p><p>MainActivity.java<\/p><p>Java<\/p><p><textarea><\/textarea><\/p><table>\t<tbody>\t\t<tr>\t\t\t<td>\t\t\t<p>1<\/p>\t\t\t<p>2<\/p>\t\t\t<p>3<\/p>\t\t\t<p>4<\/p>\t\t\t<p>5<\/p>\t\t\t<p>6<\/p>\t\t\t<p>7<\/p>\t\t\t<p>8<\/p>\t\t\t<p>9<\/p>\t\t\t<p>10<\/p>\t\t\t<p>11<\/p>\t\t\t<p>12<\/p>\t\t\t<p>13<\/p>\t\t\t<p>14<\/p>\t\t\t<p>15<\/p>\t\t\t<p>16<\/p>\t\t\t<p>17<\/p>\t\t\t<p>18<\/p>\t\t\t<p>19<\/p>\t\t\t<\/td>\t\t\t<td>\t\t\t<p>package net.simplifiedcoding.androidsplashscreen;<\/p>\t\t\t<p>&nbsp;<\/p>\t\t\t<p>import android.support.v7.app.AppCompatActivity;<\/p>\t\t\t<p>import android.os.Bundle;<\/p>\t\t\t<p>&nbsp;<\/p>\t\t\t<p>public class MainActivity extends AppCompatActivity {<\/p>\t\t\t<p>&nbsp;<\/p>\t\t\t<p>&nbsp;&nbsp;&nbsp;&nbsp;@Override<\/p>\t\t\t<p>&nbsp;&nbsp;&nbsp;&nbsp;protected void onCreate(Bundle savedInstanceState) {<\/p>\t\t\t<p>&nbsp;<\/p>\t\t\t<p>&nbsp;&nbsp;&nbsp;&nbsp;&nbsp;&nbsp;&nbsp;&nbsp;\/\/Setting the AppTheme to display the activity<\/p>\t\t\t<p>&nbsp;&nbsp;&nbsp;&nbsp;&nbsp;&nbsp;&nbsp;&nbsp;setTheme(R.style.AppTheme);<\/p>\t\t\t<p>&nbsp;&nbsp;&nbsp;&nbsp;&nbsp;&nbsp;&nbsp;&nbsp;<\/p>\t\t\t<p>&nbsp;&nbsp;&nbsp;&nbsp;&nbsp;&nbsp;&nbsp;&nbsp;super.onCreate(savedInstanceState);<\/p>\t\t\t<p>&nbsp;&nbsp;&nbsp;&nbsp;&nbsp;&nbsp;&nbsp;&nbsp;setContentView(R.layout.activity_main);<\/p>\t\t\t<p>&nbsp;&nbsp;&nbsp;&nbsp;&nbsp;&nbsp;&nbsp;&nbsp;<\/p>\t\t\t<p>&nbsp;&nbsp;&nbsp;&nbsp;&nbsp;&nbsp;&nbsp;&nbsp;\/\/then you can do the rest of the activity thing<\/p>\t\t\t<p>&nbsp;&nbsp;&nbsp;&nbsp;}<\/p>\t\t\t<p>}<\/p>\t\t\t<\/td>\t\t<\/tr>\t<\/tbody><\/table><p>&nbsp;<\/p><ul>\t<li>Now run the application and you will see your designed splash screen before loading the activity. It may be too quick if your device is very fast.<\/li><\/ul><p>So that is all for this Android Splash Screen Example friends. I hope you found it helpful. For any kind of question you can leave your comments.<\/p><p>And if you think the post is helpful please share this post with your friends. Thank You \ud83d\ude42<\/p><p>&nbsp;<\/p>",
		"youtube_link": "",
		"content": "<p>Hi everyone, welcome to another useful tutorial for beginners. So this post will show you an&nbsp;<strong>Android Splash Screen Example<\/strong>. An splash screen is a screen that shows up when we launch the app. Splash Screen is very common term and it is required for all the application. The idea behind this is, to show user a welcome screen while your application is loading.<\/p><p>In this android splash screen example we are going to learn how do we implement a splash screen in our application. So let&rsquo;s begin.<\/p>",
		"admin_id": "1",
		"created_at": "2019-05-24 15:50:05",
		"modified_at": "2019-05-24 15:50:05"
	}
}, {
	"Topic": {
		"id": "3",
		"category_id": "1",
		"title": "Turn on Flashlight Android \u2013 Building a Torch App",
		"subtitle": "Android",
		"description": "<h2>Torch Application Android Project<\/h2><ul>\t<li>The first thing, as always we need our new project. So open Android Studio and create a new project with an Empty Activity.<\/li><\/ul><p><img alt=\"turn on flashlight android\" src=\"https:\/\/i2.wp.com\/www.simplifiedcoding.net\/wp-content\/uploads\/2018\/07\/turn-on-flashlight-android.png?resize=900%2C280&amp;ssl=1\" style=\"height:252px; width:809px\" \/><\/p><p>Turn On Flashlight Android<\/p><ul>\t<li>Make sure you select API 23, as the minimum API. This is because the API that we are going to use is available on API 23 and later only, and the older one is deprecated. So to make things clean and easy to understand we are targeting only API 23 and later.<\/li><\/ul><h2>Creating Interface<\/h2><ul>\t<li>Here you can play with the design, you can put nice images and you can make your screen look awesome. But the fun part is I am not going to bother about design, and yes I will create probably the worse UI. haha .<\/li>\t<li>So come inside&nbsp;<strong>activity_main.xml<\/strong>&nbsp;and write the following code.<\/li><\/ul><p>&nbsp;<\/p><p>activity_main.xml<\/p><p><textarea><\/textarea><\/p><table>\t<tbody>\t\t<tr>\t\t\t<td>\t\t\t<p>1<\/p>\t\t\t<p>2<\/p>\t\t\t<p>3<\/p>\t\t\t<p>4<\/p>\t\t\t<p>5<\/p>\t\t\t<p>6<\/p>\t\t\t<p>7<\/p>\t\t\t<p>8<\/p>\t\t\t<p>9<\/p>\t\t\t<p>10<\/p>\t\t\t<p>11<\/p>\t\t\t<p>12<\/p>\t\t\t<p>13<\/p>\t\t\t<p>14<\/p>\t\t\t<p>15<\/p>\t\t\t<p>16<\/p>\t\t\t<p>17<\/p>\t\t\t<p>18<\/p>\t\t\t<p>19<\/p>\t\t\t<\/td>\t\t\t<td>\t\t\t<p>&lt;?xml version=&quot;1.0&quot; encoding=&quot;utf-8&quot;?&gt;<\/p>\t\t\t<p>&lt;android.support.constraint.ConstraintLayout xmlns:android=&quot;http:\/\/schemas.android.com\/apk\/res\/android&quot;<\/p>\t\t\t<p>&nbsp;&nbsp;&nbsp;&nbsp;xmlns:app=&quot;http:\/\/schemas.android.com\/apk\/res-auto&quot;<\/p>\t\t\t<p>&nbsp;&nbsp;&nbsp;&nbsp;xmlns:tools=&quot;http:\/\/schemas.android.com\/tools&quot;<\/p>\t\t\t<p>&nbsp;&nbsp;&nbsp;&nbsp;android:layout_width=&quot;match_parent&quot;<\/p>\t\t\t<p>&nbsp;&nbsp;&nbsp;&nbsp;android:layout_height=&quot;match_parent&quot;<\/p>\t\t\t<p>&nbsp;&nbsp;&nbsp;&nbsp;tools:context=&quot;.MainActivity&quot;&gt;<\/p>\t\t\t<p>&nbsp;<\/p>\t\t\t<p>&nbsp;&nbsp;&nbsp;&nbsp;&lt;ToggleButton<\/p>\t\t\t<p>&nbsp;&nbsp;&nbsp;&nbsp;&nbsp;&nbsp;&nbsp;&nbsp;android:id=&quot;@+id\/toggleButton&quot;<\/p>\t\t\t<p>&nbsp;&nbsp;&nbsp;&nbsp;&nbsp;&nbsp;&nbsp;&nbsp;android:layout_width=&quot;wrap_content&quot;<\/p>\t\t\t<p>&nbsp;&nbsp;&nbsp;&nbsp;&nbsp;&nbsp;&nbsp;&nbsp;android:layout_height=&quot;wrap_content&quot;<\/p>\t\t\t<p>&nbsp;&nbsp;&nbsp;&nbsp;&nbsp;&nbsp;&nbsp;&nbsp;android:text=&quot;ToggleButton&quot;<\/p>\t\t\t<p>&nbsp;&nbsp;&nbsp;&nbsp;&nbsp;&nbsp;&nbsp;&nbsp;app:layout_constraintBottom_toBottomOf=&quot;parent&quot;<\/p>\t\t\t<p>&nbsp;&nbsp;&nbsp;&nbsp;&nbsp;&nbsp;&nbsp;&nbsp;app:layout_constraintEnd_toEndOf=&quot;parent&quot;<\/p>\t\t\t<p>&nbsp;&nbsp;&nbsp;&nbsp;&nbsp;&nbsp;&nbsp;&nbsp;app:layout_constraintStart_toStartOf=&quot;parent&quot;<\/p>\t\t\t<p>&nbsp;&nbsp;&nbsp;&nbsp;&nbsp;&nbsp;&nbsp;&nbsp;app:layout_constraintTop_toTopOf=&quot;parent&quot; \/&gt;<\/p>\t\t\t<p>&nbsp;<\/p>\t\t\t<p>&lt;\/android.support.constraint.ConstraintLayout&gt;<\/p>\t\t\t<\/td>\t\t<\/tr>\t<\/tbody><\/table><p>&nbsp;<\/p><ul>\t<li>The above XML will give you the following output. We only have a ToggleButton that we will use to turn on or off the android flash light.<\/li><\/ul><p><img alt=\"turn on flashlight android\" src=\"https:\/\/i1.wp.com\/www.simplifiedcoding.net\/wp-content\/uploads\/2018\/07\/turn-on-flashlight-android-1.png?resize=311%2C512&amp;ssl=1\" style=\"height:512px; width:311px\" \/><\/p><p>Turn on Flashlight Android<\/p><ul>\t<li>So here we have one of the worse UI design of all time. \ud83d\ude09 LOL. Design if you want, or lets dive into adding the functionality.<\/li><\/ul><h2>Adding Feature in Manifest<\/h2><ul>\t<li>As we are going to build a Torch application, and basically we want to programmatically turn on the flashlight of our android device. To do this we need to access this feature of android.<\/li>\t<li>So come inside&nbsp;<strong>AndroidManifest.xml<\/strong>&nbsp;and add the line shown below.<\/li><\/ul><p>&nbsp;<\/p><p>AndroidManifest.xml<\/p><p><textarea><\/textarea><\/p><table>\t<tbody>\t\t<tr>\t\t\t<td>\t\t\t<p>1<\/p>\t\t\t<p>2<\/p>\t\t\t<p>3<\/p>\t\t\t<p>4<\/p>\t\t\t<p>5<\/p>\t\t\t<p>6<\/p>\t\t\t<p>7<\/p>\t\t\t<p>8<\/p>\t\t\t<p>9<\/p>\t\t\t<p>10<\/p>\t\t\t<p>11<\/p>\t\t\t<p>12<\/p>\t\t\t<p>13<\/p>\t\t\t<p>14<\/p>\t\t\t<p>15<\/p>\t\t\t<p>16<\/p>\t\t\t<p>17<\/p>\t\t\t<p>18<\/p>\t\t\t<p>19<\/p>\t\t\t<p>20<\/p>\t\t\t<p>21<\/p>\t\t\t<p>22<\/p>\t\t\t<p>23<\/p>\t\t\t<p>24<\/p>\t\t\t<\/td>\t\t\t<td>\t\t\t<p>&lt;?xml version=&quot;1.0&quot; encoding=&quot;utf-8&quot;?&gt;<\/p>\t\t\t<p>&lt;manifest xmlns:android=&quot;http:\/\/schemas.android.com\/apk\/res\/android&quot;<\/p>\t\t\t<p>&nbsp;&nbsp;&nbsp;&nbsp;package=&quot;net.simplifiedcoding.mytorch&quot;&gt;<\/p>\t\t\t<p>&nbsp;<\/p>\t\t\t<p>&nbsp;&nbsp;&nbsp;&nbsp;&lt;!-- add this line that means our application will be using the device flash --&gt;<\/p>\t\t\t<p>&nbsp;&nbsp;&nbsp;&nbsp;&lt;uses-feature android:name=&quot;android.hardware.camera.flash&quot; \/&gt;<\/p>\t\t\t<p>&nbsp;<\/p>\t\t\t<p>&nbsp;&nbsp;&nbsp;&nbsp;&lt;application<\/p>\t\t\t<p>&nbsp;&nbsp;&nbsp;&nbsp;&nbsp;&nbsp;&nbsp;&nbsp;android:allowBackup=&quot;true&quot;<\/p>\t\t\t<p>&nbsp;&nbsp;&nbsp;&nbsp;&nbsp;&nbsp;&nbsp;&nbsp;android:icon=&quot;@mipmap\/ic_launcher&quot;<\/p>\t\t\t<p>&nbsp;&nbsp;&nbsp;&nbsp;&nbsp;&nbsp;&nbsp;&nbsp;android:label=&quot;@string\/app_name&quot;<\/p>\t\t\t<p>&nbsp;&nbsp;&nbsp;&nbsp;&nbsp;&nbsp;&nbsp;&nbsp;android:roundIcon=&quot;@mipmap\/ic_launcher_round&quot;<\/p>\t\t\t<p>&nbsp;&nbsp;&nbsp;&nbsp;&nbsp;&nbsp;&nbsp;&nbsp;android:supportsRtl=&quot;true&quot;<\/p>\t\t\t<p>&nbsp;&nbsp;&nbsp;&nbsp;&nbsp;&nbsp;&nbsp;&nbsp;android:theme=&quot;@style\/AppTheme&quot;&gt;<\/p>\t\t\t<p>&nbsp;&nbsp;&nbsp;&nbsp;&nbsp;&nbsp;&nbsp;&nbsp;&lt;activity android:name=&quot;.MainActivity&quot;&gt;<\/p>\t\t\t<p>&nbsp;&nbsp;&nbsp;&nbsp;&nbsp;&nbsp;&nbsp;&nbsp;&nbsp;&nbsp;&nbsp;&nbsp;&lt;intent-filter&gt;<\/p>\t\t\t<p>&nbsp;&nbsp;&nbsp;&nbsp;&nbsp;&nbsp;&nbsp;&nbsp;&nbsp;&nbsp;&nbsp;&nbsp;&nbsp;&nbsp;&nbsp;&nbsp;&lt;action android:name=&quot;android.intent.action.MAIN&quot; \/&gt;<\/p>\t\t\t<p>&nbsp;<\/p>\t\t\t<p>&nbsp;&nbsp;&nbsp;&nbsp;&nbsp;&nbsp;&nbsp;&nbsp;&nbsp;&nbsp;&nbsp;&nbsp;&nbsp;&nbsp;&nbsp;&nbsp;&lt;category android:name=&quot;android.intent.category.LAUNCHER&quot; \/&gt;<\/p>\t\t\t<p>&nbsp;&nbsp;&nbsp;&nbsp;&nbsp;&nbsp;&nbsp;&nbsp;&nbsp;&nbsp;&nbsp;&nbsp;&lt;\/intent-filter&gt;<\/p>\t\t\t<p>&nbsp;&nbsp;&nbsp;&nbsp;&nbsp;&nbsp;&nbsp;&nbsp;&lt;\/activity&gt;<\/p>\t\t\t<p>&nbsp;&nbsp;&nbsp;&nbsp;&lt;\/application&gt;<\/p>\t\t\t<p>&nbsp;<\/p>\t\t\t<p>&lt;\/manifest&gt;<\/p>\t\t\t<\/td>\t\t<\/tr>\t<\/tbody><\/table><p>&nbsp;<\/p><p><ins><ins><ins><iframe frameborder=\"0\" height=\"90\" id=\"aswift_2\" name=\"aswift_2\" scrolling=\"no\" width=\"809\"><\/iframe><\/ins><\/ins><\/ins><\/p><h2>Building Basic Code Structure<\/h2><ul>\t<li>We don&rsquo;t have much to do, we only have a ToggleButton where we need to attach a listener to listen for the on and off events. To do this we will write the following code.<\/li><\/ul><p>&nbsp;<\/p><p><textarea><\/textarea><\/p><table>\t<tbody>\t\t<tr>\t\t\t<td>\t\t\t<p>1<\/p>\t\t\t<p>2<\/p>\t\t\t<p>3<\/p>\t\t\t<p>4<\/p>\t\t\t<p>5<\/p>\t\t\t<p>6<\/p>\t\t\t<p>7<\/p>\t\t\t<p>8<\/p>\t\t\t<p>9<\/p>\t\t\t<p>10<\/p>\t\t\t<p>11<\/p>\t\t\t<p>12<\/p>\t\t\t<p>13<\/p>\t\t\t<p>14<\/p>\t\t\t<p>15<\/p>\t\t\t<p>16<\/p>\t\t\t<p>17<\/p>\t\t\t<p>18<\/p>\t\t\t<p>19<\/p>\t\t\t<p>20<\/p>\t\t\t<\/td>\t\t\t<td>\t\t\t<p>public class MainActivity extends AppCompatActivity {<\/p>\t\t\t<p>&nbsp;<\/p>\t\t\t<p>&nbsp;&nbsp;&nbsp;&nbsp;private ToggleButton toggleButton;<\/p>\t\t\t<p>&nbsp;<\/p>\t\t\t<p>&nbsp;&nbsp;&nbsp;&nbsp;@Override<\/p>\t\t\t<p>&nbsp;&nbsp;&nbsp;&nbsp;protected void onCreate(Bundle savedInstanceState) {<\/p>\t\t\t<p>&nbsp;&nbsp;&nbsp;&nbsp;&nbsp;&nbsp;&nbsp;&nbsp;super.onCreate(savedInstanceState);<\/p>\t\t\t<p>&nbsp;&nbsp;&nbsp;&nbsp;&nbsp;&nbsp;&nbsp;&nbsp;setContentView(R.layout.activity_main);<\/p>\t\t\t<p>&nbsp;<\/p>\t\t\t<p>&nbsp;<\/p>\t\t\t<p>&nbsp;&nbsp;&nbsp;&nbsp;&nbsp;&nbsp;&nbsp;&nbsp;toggleButton = findViewById(R.id.toggleButton);<\/p>\t\t\t<p>&nbsp;<\/p>\t\t\t<p>&nbsp;&nbsp;&nbsp;&nbsp;&nbsp;&nbsp;&nbsp;&nbsp;toggleButton.setOnCheckedChangeListener(new CompoundButton.OnCheckedChangeListener() {<\/p>\t\t\t<p>&nbsp;&nbsp;&nbsp;&nbsp;&nbsp;&nbsp;&nbsp;&nbsp;&nbsp;&nbsp;&nbsp;&nbsp;@Override<\/p>\t\t\t<p>&nbsp;&nbsp;&nbsp;&nbsp;&nbsp;&nbsp;&nbsp;&nbsp;&nbsp;&nbsp;&nbsp;&nbsp;public void onCheckedChanged(CompoundButton buttonView, boolean isChecked) {<\/p>\t\t\t<p>&nbsp;&nbsp;&nbsp;&nbsp;&nbsp;&nbsp;&nbsp;&nbsp;&nbsp;&nbsp;&nbsp;&nbsp;&nbsp;&nbsp; \/\/called when the button status is changed&nbsp;&nbsp;&nbsp;&nbsp;&nbsp;&nbsp;&nbsp;&nbsp;&nbsp;&nbsp;<\/p>\t\t\t<p>&nbsp;<\/p>\t\t\t<p>&nbsp;&nbsp;&nbsp;&nbsp;&nbsp;&nbsp;&nbsp;&nbsp;&nbsp;&nbsp;&nbsp;&nbsp;}<\/p>\t\t\t<p>&nbsp;&nbsp;&nbsp;&nbsp;&nbsp;&nbsp;&nbsp;&nbsp;});<\/p>\t\t\t<p>&nbsp;&nbsp;&nbsp;&nbsp;}<\/p>\t\t\t<\/td>\t\t<\/tr>\t<\/tbody><\/table><p>&nbsp;<\/p><h2>Checking if Flash is Available<\/h2><ul>\t<li>Now let&rsquo;s write some java code. When our application will enter the&nbsp;<strong>onCreate()<\/strong>&nbsp;method, first we will check if the device has a flash light or not. If the device do not have flashlight we will quit the application saying the flash is not available.<\/li>\t<li>So our&nbsp;<strong>onCreate()<\/strong>&nbsp;method will be like this.<\/li><\/ul><p>&nbsp;<\/p><p>Java<\/p><p><textarea><\/textarea><\/p><table>\t<tbody>\t\t<tr>\t\t\t<td>\t\t\t<p>1<\/p>\t\t\t<p>2<\/p>\t\t\t<p>3<\/p>\t\t\t<p>4<\/p>\t\t\t<p>5<\/p>\t\t\t<p>6<\/p>\t\t\t<p>7<\/p>\t\t\t<p>8<\/p>\t\t\t<p>9<\/p>\t\t\t<p>10<\/p>\t\t\t<p>11<\/p>\t\t\t<p>12<\/p>\t\t\t<p>13<\/p>\t\t\t<p>14<\/p>\t\t\t<p>15<\/p>\t\t\t<p>16<\/p>\t\t\t<p>17<\/p>\t\t\t<p>18<\/p>\t\t\t<p>19<\/p>\t\t\t<p>20<\/p>\t\t\t<p>21<\/p>\t\t\t<\/td>\t\t\t<td>\t\t\t<p>&nbsp;&nbsp;&nbsp;&nbsp;@Override<\/p>\t\t\t<p>&nbsp;&nbsp;&nbsp;&nbsp;protected void onCreate(Bundle savedInstanceState) {<\/p>\t\t\t<p>&nbsp;&nbsp;&nbsp;&nbsp;&nbsp;&nbsp;&nbsp;&nbsp;super.onCreate(savedInstanceState);<\/p>\t\t\t<p>&nbsp;&nbsp;&nbsp;&nbsp;&nbsp;&nbsp;&nbsp;&nbsp;setContentView(R.layout.activity_main);<\/p>\t\t\t<p>&nbsp;<\/p>\t\t\t<p>&nbsp;&nbsp;&nbsp;&nbsp;&nbsp;&nbsp;&nbsp;&nbsp;boolean isFlashAvailable = getApplicationContext().getPackageManager()<\/p>\t\t\t<p>&nbsp;&nbsp;&nbsp;&nbsp;&nbsp;&nbsp;&nbsp;&nbsp;&nbsp;&nbsp;&nbsp;&nbsp;&nbsp;&nbsp;&nbsp;&nbsp;.hasSystemFeature(PackageManager.FEATURE_CAMERA_FLASH);<\/p>\t\t\t<p>&nbsp;<\/p>\t\t\t<p>&nbsp;&nbsp;&nbsp;&nbsp;&nbsp;&nbsp;&nbsp;&nbsp;if (!isFlashAvailable) {<\/p>\t\t\t<p>&nbsp;&nbsp;&nbsp;&nbsp;&nbsp;&nbsp;&nbsp;&nbsp;&nbsp;&nbsp;&nbsp;&nbsp;showNoFlashError();<\/p>\t\t\t<p>&nbsp;&nbsp;&nbsp;&nbsp;&nbsp;&nbsp;&nbsp;&nbsp;}<\/p>\t\t\t<p>&nbsp;<\/p>\t\t\t<p>&nbsp;&nbsp;&nbsp;&nbsp;&nbsp;&nbsp;&nbsp;&nbsp;toggleButton = findViewById(R.id.toggleButton);<\/p>\t\t\t<p>&nbsp;<\/p>\t\t\t<p>&nbsp;&nbsp;&nbsp;&nbsp;&nbsp;&nbsp;&nbsp;&nbsp;toggleButton.setOnCheckedChangeListener(new CompoundButton.OnCheckedChangeListener() {<\/p>\t\t\t<p>&nbsp;&nbsp;&nbsp;&nbsp;&nbsp;&nbsp;&nbsp;&nbsp;&nbsp;&nbsp;&nbsp;&nbsp;@Override<\/p>\t\t\t<p>&nbsp;&nbsp;&nbsp;&nbsp;&nbsp;&nbsp;&nbsp;&nbsp;&nbsp;&nbsp;&nbsp;&nbsp;public void onCheckedChanged(CompoundButton buttonView, boolean isChecked) {<\/p>\t\t\t<p>&nbsp;&nbsp;&nbsp;&nbsp;&nbsp;&nbsp;&nbsp;&nbsp;&nbsp;&nbsp;&nbsp;&nbsp;&nbsp;&nbsp;&nbsp;&nbsp;<\/p>\t\t\t<p>&nbsp;&nbsp;&nbsp;&nbsp;&nbsp;&nbsp;&nbsp;&nbsp;&nbsp;&nbsp;&nbsp;&nbsp;}<\/p>\t\t\t<p>&nbsp;&nbsp;&nbsp;&nbsp;&nbsp;&nbsp;&nbsp;&nbsp;});<\/p>\t\t\t<p>&nbsp;&nbsp;&nbsp;&nbsp;}<\/p>\t\t\t<\/td>\t\t<\/tr>\t<\/tbody><\/table><p>&nbsp;<\/p><ul>\t<li>We are calling the method&nbsp;<strong>showNoFlashError()<\/strong>&nbsp;that you can define as below.<\/li><\/ul><p>&nbsp;<\/p><p>Java<\/p><p><textarea><\/textarea><\/p><table>\t<tbody>\t\t<tr>\t\t\t<td>\t\t\t<p>1<\/p>\t\t\t<p>2<\/p>\t\t\t<p>3<\/p>\t\t\t<p>4<\/p>\t\t\t<p>5<\/p>\t\t\t<p>6<\/p>\t\t\t<p>7<\/p>\t\t\t<p>8<\/p>\t\t\t<p>9<\/p>\t\t\t<p>10<\/p>\t\t\t<p>11<\/p>\t\t\t<p>12<\/p>\t\t\t<\/td>\t\t\t<td>\t\t\t<p>&nbsp;&nbsp;&nbsp;&nbsp;public void showNoFlashError() {<\/p>\t\t\t<p>&nbsp;&nbsp;&nbsp;&nbsp;&nbsp;&nbsp;&nbsp;&nbsp;AlertDialog alert = new AlertDialog.Builder(this)<\/p>\t\t\t<p>&nbsp;&nbsp;&nbsp;&nbsp;&nbsp;&nbsp;&nbsp;&nbsp;&nbsp;&nbsp;&nbsp;&nbsp;&nbsp;&nbsp;&nbsp;&nbsp;.create();<\/p>\t\t\t<p>&nbsp;&nbsp;&nbsp;&nbsp;&nbsp;&nbsp;&nbsp;&nbsp;alert.setTitle(&quot;Oops!&quot;);<\/p>\t\t\t<p>&nbsp;&nbsp;&nbsp;&nbsp;&nbsp;&nbsp;&nbsp;&nbsp;alert.setMessage(&quot;Flash not available in this device...&quot;);<\/p>\t\t\t<p>&nbsp;&nbsp;&nbsp;&nbsp;&nbsp;&nbsp;&nbsp;&nbsp;alert.setButton(DialogInterface.BUTTON_POSITIVE, &quot;OK&quot;, new DialogInterface.OnClickListener() {<\/p>\t\t\t<p>&nbsp;&nbsp;&nbsp;&nbsp;&nbsp;&nbsp;&nbsp;&nbsp;&nbsp;&nbsp;&nbsp;&nbsp;public void onClick(DialogInterface dialog, int which) {<\/p>\t\t\t<p>&nbsp;&nbsp;&nbsp;&nbsp;&nbsp;&nbsp;&nbsp;&nbsp;&nbsp;&nbsp;&nbsp;&nbsp;&nbsp;&nbsp;&nbsp;&nbsp;finish();<\/p>\t\t\t<p>&nbsp;&nbsp;&nbsp;&nbsp;&nbsp;&nbsp;&nbsp;&nbsp;&nbsp;&nbsp;&nbsp;&nbsp;}<\/p>\t\t\t<p>&nbsp;&nbsp;&nbsp;&nbsp;&nbsp;&nbsp;&nbsp;&nbsp;});<\/p>\t\t\t<p>&nbsp;&nbsp;&nbsp;&nbsp;&nbsp;&nbsp;&nbsp;&nbsp;alert.show();<\/p>\t\t\t<p>&nbsp;&nbsp;&nbsp;&nbsp;}<\/p>\t\t\t<\/td>\t\t<\/tr>\t<\/tbody><\/table><p>&nbsp;<\/p><h2>Getting Camera Manager<\/h2><ul>\t<li>Now we need&nbsp;<strong>CameraManager<\/strong>, and a&nbsp;<strong>String<\/strong>&nbsp;for the&nbsp;<strong>Camera Id<\/strong>, as most devices has multiple cameras.<\/li><\/ul><p>&nbsp;<\/p><p>Java<\/p><p><textarea><\/textarea><\/p><table>\t<tbody>\t\t<tr>\t\t\t<td>\t\t\t<p>1<\/p>\t\t\t<p>2<\/p>\t\t\t<p>3<\/p>\t\t\t<\/td>\t\t\t<td>\t\t\t<p>public class MainActivity extends AppCompatActivity {<\/p>\t\t\t<p>&nbsp;&nbsp;&nbsp;&nbsp;private CameraManager mCameraManager;<\/p>\t\t\t<p>&nbsp;&nbsp;&nbsp;&nbsp;private String mCameraId;<\/p>\t\t\t<\/td>\t\t<\/tr>\t<\/tbody><\/table><p>&nbsp;<\/p><ul>\t<li>Now inside&nbsp;<strong>onCreate()<\/strong>&nbsp;we will get the&nbsp;<strong>CameraManager<\/strong>&nbsp;and&nbsp;<strong>Camera Id.<\/strong><\/li><\/ul><p>&nbsp;<\/p><p>Java<\/p><p><textarea><\/textarea><\/p><table>\t<tbody>\t\t<tr>\t\t\t<td>\t\t\t<p>1<\/p>\t\t\t<p>2<\/p>\t\t\t<p>3<\/p>\t\t\t<p>4<\/p>\t\t\t<p>5<\/p>\t\t\t<p>6<\/p>\t\t\t<p>7<\/p>\t\t\t<p>8<\/p>\t\t\t<p>9<\/p>\t\t\t<p>10<\/p>\t\t\t<p>11<\/p>\t\t\t<p>12<\/p>\t\t\t<p>13<\/p>\t\t\t<p>14<\/p>\t\t\t<p>15<\/p>\t\t\t<p>16<\/p>\t\t\t<p>17<\/p>\t\t\t<p>18<\/p>\t\t\t<p>19<\/p>\t\t\t<p>20<\/p>\t\t\t<p>21<\/p>\t\t\t<p>22<\/p>\t\t\t<p>23<\/p>\t\t\t<p>24<\/p>\t\t\t<p>25<\/p>\t\t\t<p>26<\/p>\t\t\t<p>27<\/p>\t\t\t<p>28<\/p>\t\t\t<p>29<\/p>\t\t\t<p>30<\/p>\t\t\t<\/td>\t\t\t<td>\t\t\t<p>&nbsp;&nbsp;&nbsp;&nbsp;@Override<\/p>\t\t\t<p>&nbsp;&nbsp;&nbsp;&nbsp;protected void onCreate(Bundle savedInstanceState) {<\/p>\t\t\t<p>&nbsp;&nbsp;&nbsp;&nbsp;&nbsp;&nbsp;&nbsp;&nbsp;super.onCreate(savedInstanceState);<\/p>\t\t\t<p>&nbsp;&nbsp;&nbsp;&nbsp;&nbsp;&nbsp;&nbsp;&nbsp;setContentView(R.layout.activity_main);<\/p>\t\t\t<p>&nbsp;<\/p>\t\t\t<p>&nbsp;&nbsp;&nbsp;&nbsp;&nbsp;&nbsp;&nbsp;&nbsp;boolean isFlashAvailable = getApplicationContext().getPackageManager()<\/p>\t\t\t<p>&nbsp;&nbsp;&nbsp;&nbsp;&nbsp;&nbsp;&nbsp;&nbsp;&nbsp;&nbsp;&nbsp;&nbsp;&nbsp;&nbsp;&nbsp;&nbsp;.hasSystemFeature(PackageManager.FEATURE_CAMERA_FLASH);<\/p>\t\t\t<p>&nbsp;<\/p>\t\t\t<p>&nbsp;&nbsp;&nbsp;&nbsp;&nbsp;&nbsp;&nbsp;&nbsp;if (!isFlashAvailable) {<\/p>\t\t\t<p>&nbsp;&nbsp;&nbsp;&nbsp;&nbsp;&nbsp;&nbsp;&nbsp;&nbsp;&nbsp;&nbsp;&nbsp;showNoFlashError();<\/p>\t\t\t<p>&nbsp;&nbsp;&nbsp;&nbsp;&nbsp;&nbsp;&nbsp;&nbsp;}<\/p>\t\t\t<p>&nbsp;<\/p>\t\t\t<p>&nbsp;&nbsp;&nbsp;&nbsp;&nbsp;&nbsp;&nbsp;&nbsp;\/\/getting the camera manager and camera id<\/p>\t\t\t<p>&nbsp;&nbsp;&nbsp;&nbsp;&nbsp;&nbsp;&nbsp;&nbsp;mCameraManager = (CameraManager) getSystemService(Context.CAMERA_SERVICE);<\/p>\t\t\t<p>&nbsp;&nbsp;&nbsp;&nbsp;&nbsp;&nbsp;&nbsp;&nbsp;try {<\/p>\t\t\t<p>&nbsp;&nbsp;&nbsp;&nbsp;&nbsp;&nbsp;&nbsp;&nbsp;&nbsp;&nbsp;&nbsp;&nbsp;mCameraId = mCameraManager.getCameraIdList()[0];<\/p>\t\t\t<p>&nbsp;&nbsp;&nbsp;&nbsp;&nbsp;&nbsp;&nbsp;&nbsp;} catch (CameraAccessException e) {<\/p>\t\t\t<p>&nbsp;&nbsp;&nbsp;&nbsp;&nbsp;&nbsp;&nbsp;&nbsp;&nbsp;&nbsp;&nbsp;&nbsp;e.printStackTrace();<\/p>\t\t\t<p>&nbsp;&nbsp;&nbsp;&nbsp;&nbsp;&nbsp;&nbsp;&nbsp;}<\/p>\t\t\t<p>&nbsp;<\/p>\t\t\t<p>&nbsp;&nbsp;&nbsp;&nbsp;&nbsp;&nbsp;&nbsp;&nbsp;toggleButton = findViewById(R.id.toggleButton);<\/p>\t\t\t<p>&nbsp;<\/p>\t\t\t<p>&nbsp;&nbsp;&nbsp;&nbsp;&nbsp;&nbsp;&nbsp;&nbsp;toggleButton.setOnCheckedChangeListener(new CompoundButton.OnCheckedChangeListener() {<\/p>\t\t\t<p>&nbsp;&nbsp;&nbsp;&nbsp;&nbsp;&nbsp;&nbsp;&nbsp;&nbsp;&nbsp;&nbsp;&nbsp;@Override<\/p>\t\t\t<p>&nbsp;&nbsp;&nbsp;&nbsp;&nbsp;&nbsp;&nbsp;&nbsp;&nbsp;&nbsp;&nbsp;&nbsp;public void onCheckedChanged(CompoundButton buttonView, boolean isChecked) {<\/p>\t\t\t<p>&nbsp;&nbsp;&nbsp;&nbsp;&nbsp;&nbsp;&nbsp;&nbsp;&nbsp;&nbsp;&nbsp;&nbsp;&nbsp;&nbsp;&nbsp;&nbsp;\/\/we will call this method to switch the flash<\/p>\t\t\t<p>&nbsp;&nbsp;&nbsp;&nbsp;&nbsp;&nbsp;&nbsp;&nbsp;&nbsp;&nbsp;&nbsp;&nbsp;&nbsp;&nbsp;&nbsp;&nbsp;switchFlashLight(isChecked);<\/p>\t\t\t<p>&nbsp;&nbsp;&nbsp;&nbsp;&nbsp;&nbsp;&nbsp;&nbsp;&nbsp;&nbsp;&nbsp;&nbsp;}<\/p>\t\t\t<p>&nbsp;&nbsp;&nbsp;&nbsp;&nbsp;&nbsp;&nbsp;&nbsp;});<\/p>\t\t\t<p>&nbsp;&nbsp;&nbsp;&nbsp;}<\/p>\t\t\t<\/td>\t\t<\/tr>\t<\/tbody><\/table><p>&nbsp;<\/p><ul>\t<li>This time you can also see that inside the ToggleButton Listener we are calling a method named&nbsp;<strong>switchFlashLight()<\/strong>&nbsp;and we are passing the&nbsp;<strong>isChecked<\/strong>&nbsp;boolean variable to this method which tells the current state of the Toggle Button, whether it is On or Off.<\/li>\t<li>This method&nbsp;<strong>switchFlashLight()<\/strong>&nbsp;will do the actual task so let&rsquo;s define it.<\/li><\/ul><h2>Turn on Flashlight Android<\/h2><ul>\t<li>The code is very simple only a single line as we already defined the required objects.<\/li><\/ul><p>&nbsp;<\/p><p>Java<\/p><p><textarea><\/textarea><\/p><table>\t<tbody>\t\t<tr>\t\t\t<td>\t\t\t<p>1<\/p>\t\t\t<p>2<\/p>\t\t\t<p>3<\/p>\t\t\t<p>4<\/p>\t\t\t<p>5<\/p>\t\t\t<p>6<\/p>\t\t\t<p>7<\/p>\t\t\t<\/td>\t\t\t<td>\t\t\t<p>&nbsp;&nbsp;&nbsp;&nbsp;public void switchFlashLight(boolean status) {<\/p>\t\t\t<p>&nbsp;&nbsp;&nbsp;&nbsp;&nbsp;&nbsp;&nbsp;&nbsp;try {<\/p>\t\t\t<p>&nbsp;&nbsp;&nbsp;&nbsp;&nbsp;&nbsp;&nbsp;&nbsp;&nbsp;&nbsp;&nbsp;&nbsp;mCameraManager.setTorchMode(mCameraId, status);<\/p>\t\t\t<p>&nbsp;&nbsp;&nbsp;&nbsp;&nbsp;&nbsp;&nbsp;&nbsp;} catch (CameraAccessException e) {<\/p>\t\t\t<p>&nbsp;&nbsp;&nbsp;&nbsp;&nbsp;&nbsp;&nbsp;&nbsp;&nbsp;&nbsp;&nbsp;&nbsp;e.printStackTrace();<\/p>\t\t\t<p>&nbsp;&nbsp;&nbsp;&nbsp;&nbsp;&nbsp;&nbsp;&nbsp;}<\/p>\t\t\t<p>&nbsp;&nbsp;&nbsp;&nbsp;}<\/p>\t\t\t<\/td>\t\t<\/tr>\t<\/tbody><\/table><p>&nbsp;<\/p><ul>\t<li>Now you can try running your application.<\/li>\t<li>If you are having any confusions, then here is the full code of our&nbsp;<strong>MainActivity.java<\/strong>.<\/li><\/ul><p>&nbsp;<\/p><p>MainActivity.java<\/p><p>Java<\/p><p><textarea><\/textarea><\/p><table>\t<tbody>\t\t<tr>\t\t\t<td>\t\t\t<p>1<\/p>\t\t\t<p>2<\/p>\t\t\t<p>3<\/p>\t\t\t<p>4<\/p>\t\t\t<p>5<\/p>\t\t\t<p>6<\/p>\t\t\t<p>7<\/p>\t\t\t<p>8<\/p>\t\t\t<p>9<\/p>\t\t\t<p>10<\/p>\t\t\t<p>11<\/p>\t\t\t<p>12<\/p>\t\t\t<p>13<\/p>\t\t\t<p>14<\/p>\t\t\t<p>15<\/p>\t\t\t<p>16<\/p>\t\t\t<p>17<\/p>\t\t\t<p>18<\/p>\t\t\t<p>19<\/p>\t\t\t<p>20<\/p>\t\t\t<p>21<\/p>\t\t\t<p>22<\/p>\t\t\t<p>23<\/p>\t\t\t<p>24<\/p>\t\t\t<p>25<\/p>\t\t\t<p>26<\/p>\t\t\t<p>27<\/p>\t\t\t<p>28<\/p>\t\t\t<p>29<\/p>\t\t\t<p>30<\/p>\t\t\t<p>31<\/p>\t\t\t<p>32<\/p>\t\t\t<p>33<\/p>\t\t\t<p>34<\/p>\t\t\t<p>35<\/p>\t\t\t<p>36<\/p>\t\t\t<p>37<\/p>\t\t\t<p>38<\/p>\t\t\t<p>39<\/p>\t\t\t<p>40<\/p>\t\t\t<p>41<\/p>\t\t\t<p>42<\/p>\t\t\t<p>43<\/p>\t\t\t<p>44<\/p>\t\t\t<p>45<\/p>\t\t\t<p>46<\/p>\t\t\t<p>47<\/p>\t\t\t<p>48<\/p>\t\t\t<p>49<\/p>\t\t\t<p>50<\/p>\t\t\t<p>51<\/p>\t\t\t<p>52<\/p>\t\t\t<p>53<\/p>\t\t\t<p>54<\/p>\t\t\t<p>55<\/p>\t\t\t<p>56<\/p>\t\t\t<p>57<\/p>\t\t\t<p>58<\/p>\t\t\t<p>59<\/p>\t\t\t<p>60<\/p>\t\t\t<p>61<\/p>\t\t\t<p>62<\/p>\t\t\t<p>63<\/p>\t\t\t<p>64<\/p>\t\t\t<p>65<\/p>\t\t\t<p>66<\/p>\t\t\t<p>67<\/p>\t\t\t<p>68<\/p>\t\t\t<p>69<\/p>\t\t\t<p>70<\/p>\t\t\t<p>71<\/p>\t\t\t<p>72<\/p>\t\t\t<\/td>\t\t\t<td>\t\t\t<p>package net.simplifiedcoding.mytorch;<\/p>\t\t\t<p>&nbsp;<\/p>\t\t\t<p>import android.content.Context;<\/p>\t\t\t<p>import android.content.DialogInterface;<\/p>\t\t\t<p>import android.content.pm.PackageManager;<\/p>\t\t\t<p>import android.hardware.camera2.CameraAccessException;<\/p>\t\t\t<p>import android.hardware.camera2.CameraManager;<\/p>\t\t\t<p>import android.os.Bundle;<\/p>\t\t\t<p>import android.support.v7.app.AlertDialog;<\/p>\t\t\t<p>import android.support.v7.app.AppCompatActivity;<\/p>\t\t\t<p>import android.widget.CompoundButton;<\/p>\t\t\t<p>import android.widget.ToggleButton;<\/p>\t\t\t<p>&nbsp;<\/p>\t\t\t<p>public class MainActivity extends AppCompatActivity {<\/p>\t\t\t<p>&nbsp;<\/p>\t\t\t<p>&nbsp;<\/p>\t\t\t<p>&nbsp;&nbsp;&nbsp;&nbsp;private CameraManager mCameraManager;<\/p>\t\t\t<p>&nbsp;&nbsp;&nbsp;&nbsp;private String mCameraId;<\/p>\t\t\t<p>&nbsp;<\/p>\t\t\t<p>&nbsp;&nbsp;&nbsp;&nbsp;private ToggleButton toggleButton;<\/p>\t\t\t<p>&nbsp;<\/p>\t\t\t<p>&nbsp;&nbsp;&nbsp;&nbsp;@Override<\/p>\t\t\t<p>&nbsp;&nbsp;&nbsp;&nbsp;protected void onCreate(Bundle savedInstanceState) {<\/p>\t\t\t<p>&nbsp;&nbsp;&nbsp;&nbsp;&nbsp;&nbsp;&nbsp;&nbsp;super.onCreate(savedInstanceState);<\/p>\t\t\t<p>&nbsp;&nbsp;&nbsp;&nbsp;&nbsp;&nbsp;&nbsp;&nbsp;setContentView(R.layout.activity_main);<\/p>\t\t\t<p>&nbsp;<\/p>\t\t\t<p>&nbsp;&nbsp;&nbsp;&nbsp;&nbsp;&nbsp;&nbsp;&nbsp;boolean isFlashAvailable = getApplicationContext().getPackageManager()<\/p>\t\t\t<p>&nbsp;&nbsp;&nbsp;&nbsp;&nbsp;&nbsp;&nbsp;&nbsp;&nbsp;&nbsp;&nbsp;&nbsp;&nbsp;&nbsp;&nbsp;&nbsp;.hasSystemFeature(PackageManager.FEATURE_CAMERA_FLASH);<\/p>\t\t\t<p>&nbsp;<\/p>\t\t\t<p>&nbsp;&nbsp;&nbsp;&nbsp;&nbsp;&nbsp;&nbsp;&nbsp;if (!isFlashAvailable) {<\/p>\t\t\t<p>&nbsp;&nbsp;&nbsp;&nbsp;&nbsp;&nbsp;&nbsp;&nbsp;&nbsp;&nbsp;&nbsp;&nbsp;showNoFlashError();<\/p>\t\t\t<p>&nbsp;&nbsp;&nbsp;&nbsp;&nbsp;&nbsp;&nbsp;&nbsp;}<\/p>\t\t\t<p>&nbsp;<\/p>\t\t\t<p>&nbsp;<\/p>\t\t\t<p>&nbsp;&nbsp;&nbsp;&nbsp;&nbsp;&nbsp;&nbsp;&nbsp;mCameraManager = (CameraManager) getSystemService(Context.CAMERA_SERVICE);<\/p>\t\t\t<p>&nbsp;&nbsp;&nbsp;&nbsp;&nbsp;&nbsp;&nbsp;&nbsp;try {<\/p>\t\t\t<p>&nbsp;&nbsp;&nbsp;&nbsp;&nbsp;&nbsp;&nbsp;&nbsp;&nbsp;&nbsp;&nbsp;&nbsp;mCameraId = mCameraManager.getCameraIdList()[0];<\/p>\t\t\t<p>&nbsp;&nbsp;&nbsp;&nbsp;&nbsp;&nbsp;&nbsp;&nbsp;} catch (CameraAccessException e) {<\/p>\t\t\t<p>&nbsp;&nbsp;&nbsp;&nbsp;&nbsp;&nbsp;&nbsp;&nbsp;&nbsp;&nbsp;&nbsp;&nbsp;e.printStackTrace();<\/p>\t\t\t<p>&nbsp;&nbsp;&nbsp;&nbsp;&nbsp;&nbsp;&nbsp;&nbsp;}<\/p>\t\t\t<p>&nbsp;<\/p>\t\t\t<p>&nbsp;&nbsp;&nbsp;&nbsp;&nbsp;&nbsp;&nbsp;&nbsp;toggleButton = findViewById(R.id.toggleButton);<\/p>\t\t\t<p>&nbsp;<\/p>\t\t\t<p>&nbsp;&nbsp;&nbsp;&nbsp;&nbsp;&nbsp;&nbsp;&nbsp;toggleButton.setOnCheckedChangeListener(new CompoundButton.OnCheckedChangeListener() {<\/p>\t\t\t<p>&nbsp;&nbsp;&nbsp;&nbsp;&nbsp;&nbsp;&nbsp;&nbsp;&nbsp;&nbsp;&nbsp;&nbsp;@Override<\/p>\t\t\t<p>&nbsp;&nbsp;&nbsp;&nbsp;&nbsp;&nbsp;&nbsp;&nbsp;&nbsp;&nbsp;&nbsp;&nbsp;public void onCheckedChanged(CompoundButton buttonView, boolean isChecked) {<\/p>\t\t\t<p>&nbsp;&nbsp;&nbsp;&nbsp;&nbsp;&nbsp;&nbsp;&nbsp;&nbsp;&nbsp;&nbsp;&nbsp;&nbsp;&nbsp;&nbsp;&nbsp;switchFlashLight(isChecked);<\/p>\t\t\t<p>&nbsp;&nbsp;&nbsp;&nbsp;&nbsp;&nbsp;&nbsp;&nbsp;&nbsp;&nbsp;&nbsp;&nbsp;}<\/p>\t\t\t<p>&nbsp;&nbsp;&nbsp;&nbsp;&nbsp;&nbsp;&nbsp;&nbsp;});<\/p>\t\t\t<p>&nbsp;&nbsp;&nbsp;&nbsp;}<\/p>\t\t\t<p>&nbsp;<\/p>\t\t\t<p>&nbsp;&nbsp;&nbsp;&nbsp;public void showNoFlashError() {<\/p>\t\t\t<p>&nbsp;&nbsp;&nbsp;&nbsp;&nbsp;&nbsp;&nbsp;&nbsp;AlertDialog alert = new AlertDialog.Builder(this)<\/p>\t\t\t<p>&nbsp;&nbsp;&nbsp;&nbsp;&nbsp;&nbsp;&nbsp;&nbsp;&nbsp;&nbsp;&nbsp;&nbsp;&nbsp;&nbsp;&nbsp;&nbsp;.create();<\/p>\t\t\t<p>&nbsp;&nbsp;&nbsp;&nbsp;&nbsp;&nbsp;&nbsp;&nbsp;alert.setTitle(&quot;Oops!&quot;);<\/p>\t\t\t<p>&nbsp;&nbsp;&nbsp;&nbsp;&nbsp;&nbsp;&nbsp;&nbsp;alert.setMessage(&quot;Flash not available in this device...&quot;);<\/p>\t\t\t<p>&nbsp;&nbsp;&nbsp;&nbsp;&nbsp;&nbsp;&nbsp;&nbsp;alert.setButton(DialogInterface.BUTTON_POSITIVE, &quot;OK&quot;, new DialogInterface.OnClickListener() {<\/p>\t\t\t<p>&nbsp;&nbsp;&nbsp;&nbsp;&nbsp;&nbsp;&nbsp;&nbsp;&nbsp;&nbsp;&nbsp;&nbsp;public void onClick(DialogInterface dialog, int which) {<\/p>\t\t\t<p>&nbsp;&nbsp;&nbsp;&nbsp;&nbsp;&nbsp;&nbsp;&nbsp;&nbsp;&nbsp;&nbsp;&nbsp;&nbsp;&nbsp;&nbsp;&nbsp;finish();<\/p>\t\t\t<p>&nbsp;&nbsp;&nbsp;&nbsp;&nbsp;&nbsp;&nbsp;&nbsp;&nbsp;&nbsp;&nbsp;&nbsp;}<\/p>\t\t\t<p>&nbsp;&nbsp;&nbsp;&nbsp;&nbsp;&nbsp;&nbsp;&nbsp;});<\/p>\t\t\t<p>&nbsp;&nbsp;&nbsp;&nbsp;&nbsp;&nbsp;&nbsp;&nbsp;alert.show();<\/p>\t\t\t<p>&nbsp;&nbsp;&nbsp;&nbsp;}<\/p>\t\t\t<p>&nbsp;<\/p>\t\t\t<p>&nbsp;&nbsp;&nbsp;&nbsp;public void switchFlashLight(boolean status) {<\/p>\t\t\t<p>&nbsp;&nbsp;&nbsp;&nbsp;&nbsp;&nbsp;&nbsp;&nbsp;try {<\/p>\t\t\t<p>&nbsp;&nbsp;&nbsp;&nbsp;&nbsp;&nbsp;&nbsp;&nbsp;&nbsp;&nbsp;&nbsp;&nbsp;mCameraManager.setTorchMode(mCameraId, status);<\/p>\t\t\t<p>&nbsp;&nbsp;&nbsp;&nbsp;&nbsp;&nbsp;&nbsp;&nbsp;} catch (CameraAccessException e) {<\/p>\t\t\t<p>&nbsp;&nbsp;&nbsp;&nbsp;&nbsp;&nbsp;&nbsp;&nbsp;&nbsp;&nbsp;&nbsp;&nbsp;e.printStackTrace();<\/p>\t\t\t<p>&nbsp;&nbsp;&nbsp;&nbsp;&nbsp;&nbsp;&nbsp;&nbsp;}<\/p>\t\t\t<p>&nbsp;&nbsp;&nbsp;&nbsp;}<\/p>\t\t\t<p>}<\/p>\t\t\t<\/td>\t\t<\/tr>\t<\/tbody><\/table><p>So that is all for this Turn On Flashlight Android tutorial guys. I hope you found it helpful. If you have any query, just leave that in the comment section below. And don&rsquo;t forget to share this post with android newbies. Thank You \ud83d\ude42<\/p>",
		"youtube_link": "",
		"content": "<p>Hey everyone, this is a tutorial for the newbies, the people just started getting there hands dirty on android coding. I thought I would post some small apps tutorial for you all, so that you can enjoy the learning. Today, in this post we will learn how to Turn on Flashlight in Android using Code. As the title says&nbsp;<strong>&ldquo;Turn on Flashlight Android &ndash; Building a Torch App&rdquo;,&nbsp;<\/strong>so we are going to build a simple torch application today.<\/p>",
		"admin_id": "1",
		"created_at": "2019-05-24 16:45:45",
		"modified_at": "2019-05-24 16:45:45"
	}
}]
